999
dxfrw 0.5.10
0
SECTION
2
HEADER
9
$ACADVER
1
AC1021
9
$HANDSEED
5
20000
9
$DWGCODEPAGE
3
ANSI_1252
9
$INSBASE
10
0
20
0
30
0
9
$EXTMIN
10
-7.5
20
-7.5
30
0
9
$EXTMAX
10
7.5
20
7.5
30
0
9
$LIMMIN
10
0
20
0
9
$LIMMAX
10
420
20
297
9
$ORTHOMODE
70
0
9
$LTSCALE
40
1
9
$TEXTSTYLE
7
STANDARD
9
$CLAYER
8
20Teeth
9
$DIMASZ
40
2.5
9
$DIMLFAC
40
1
9
$DIMSCALE
40
1
9
$DIMEXO
40
0.625
9
$DIMEXE
40
1.25
9
$DIMTXT
40
2.5
9
$DIMTSZ
40
0
9
$DIMAUNIT
70
0
9
$DIMADEC
70
0
9
$DIMLUNIT
70
2
9
$DIMSTYLE
2
STANDARD
9
$DIMGAP
40
0.625
9
$DIMTIH
70
0
9
$LUNITS
70
2
9
$LUPREC
70
4
9
$AUNITS
70
0
9
$AUPREC
70
2
9
$SPLINESEGS
70
8
9
$SNAPSTYLE
70
0
9
$PINSBASE
10
0
20
0
30
0
9
$PLIMMIN
10
0
20
0
9
$PLIMMAX
10
210
20
297
9
$INSUNITS
70
0
9
$PSVPSCALE
40
1
0
ENDSEC
0
SECTION
2
CLASSES
0
ENDSEC
0
SECTION
2
TABLES
0
TABLE
2
VPORT
5
8
330
0
100
AcDbSymbolTable
70
1
0
VPORT
5
31
330
2
100
AcDbSymbolTableRecord
100
AcDbViewportTableRecord
2
*ACTIVE
70
0
10
0
20
0
11
1
21
1
12
20.3666040453
22
10.8621888242
13
0
23
0
14
10
24
10
15
10
25
10
16
0
26
0
36
1
17
0
27
0
37
0
40
43.9315192444
41
1.75824175824
42
50
43
0
44
0
50
0
51
0
71
0
72
100
73
1
74
3
75
0
76
1
77
0
78
0
281
0
65
1
110
0
120
0
130
0
111
1
121
0
131
0
112
0
122
1
132
0
79
0
146
0
348
10020
60
7
61
5
292
1
282
1
141
0
142
0
63
250
421
3358443
0
ENDTAB
0
TABLE
2
LTYPE
5
5
330
0
100
AcDbSymbolTable
70
4
0
LTYPE
5
14
330
5
100
AcDbSymbolTableRecord
100
AcDbLinetypeTableRecord
2
ByBlock
70
0
3

72
65
73
0
40
0
0
LTYPE
5
15
330
5
100
AcDbSymbolTableRecord
100
AcDbLinetypeTableRecord
2
ByLayer
70
0
3

72
65
73
0
40
0
0
LTYPE
5
16
330
5
100
AcDbSymbolTableRecord
100
AcDbLinetypeTableRecord
2
Continuous
70
0
3
Solid line
72
65
73
0
40
0
0
LTYPE
5
32
330
5
100
AcDbSymbolTableRecord
100
AcDbLinetypeTableRecord
2
DOT
70
0
3
Dot . . . . . . . . . . . . . . . . . . . . . .
72
65
73
2
40
6.35
49
0
74
0
49
-6.35
74
0
0
LTYPE
5
33
330
5
100
AcDbSymbolTableRecord
100
AcDbLinetypeTableRecord
2
DOT2
70
0
3
Dot (.5x) .....................................
72
65
73
2
40
3.175
49
0
74
0
49
-3.175
74
0
0
LTYPE
5
34
330
5
100
AcDbSymbolTableRecord
100
AcDbLinetypeTableRecord
2
DOTX2
70
0
3
Dot (2x) .  .  .  .  .  .  .  .  .  .  .  .  .
72
65
73
2
40
12.7
49
0
74
0
49
-12.7
74
0
0
LTYPE
5
35
330
5
100
AcDbSymbolTableRecord
100
AcDbLinetypeTableRecord
2
DASHED
70
0
3
Dot . . . . . . . . . . . . . . . . . . . . . .
72
65
73
2
40
19.05
49
12.7
74
0
49
-6.35
74
0
0
LTYPE
5
36
330
5
100
AcDbSymbolTableRecord
100
AcDbLinetypeTableRecord
2
DASHED2
70
0
3
Dashed (.5x) _ _ _ _ _ _ _ _ _ _ _ _ _ _ _ _ _
72
65
73
2
40
9.525
49
6.35
74
0
49
-3.175
74
0
0
LTYPE
5
37
330
5
100
AcDbSymbolTableRecord
100
AcDbLinetypeTableRecord
2
DASHEDX2
70
0
3
Dashed (2x) ____  ____  ____  ____  ____  ___
72
65
73
2
40
38.1
49
25.4
74
0
49
-12.7
74
0
0
LTYPE
5
38
330
5
100
AcDbSymbolTableRecord
100
AcDbLinetypeTableRecord
2
DASHDOT
70
0
3
Dash dot __ . __ . __ . __ . __ . __ . __ . __
72
65
73
4
40
25.4
49
12.7
74
0
49
-6.35
74
0
49
0
74
0
49
-6.35
74
0
0
LTYPE
5
39
330
5
100
AcDbSymbolTableRecord
100
AcDbLinetypeTableRecord
2
DASHDOT2
70
0
3
Dash dot (.5x) _._._._._._._._._._._._._._._.
72
65
73
4
40
12.7
49
6.35
74
0
49
-3.175
74
0
49
0
74
0
49
-3.175
74
0
0
LTYPE
5
3A
330
5
100
AcDbSymbolTableRecord
100
AcDbLinetypeTableRecord
2
DASHDOTX2
70
0
3
Dash dot (2x) ____  .  ____  .  ____  .  ___
72
65
73
4
40
50.8
49
25.4
74
0
49
-12.7
74
0
49
0
74
0
49
-12.7
74
0
0
LTYPE
5
3B
330
5
100
AcDbSymbolTableRecord
100
AcDbLinetypeTableRecord
2
DIVIDE
70
0
3
Divide ____ . . ____ . . ____ . . ____ . . ____
72
65
73
6
40
31.75
49
12.7
74
0
49
-6.35
74
0
49
0
74
0
49
-6.35
74
0
49
0
74
0
49
-6.35
74
0
0
LTYPE
5
3C
330
5
100
AcDbSymbolTableRecord
100
AcDbLinetypeTableRecord
2
DIVIDE2
70
0
3
Divide (.5x) __..__..__..__..__..__..__..__.._
72
65
73
6
40
15.875
49
6.35
74
0
49
-3.175
74
0
49
0
74
0
49
-3.175
74
0
49
0
74
0
49
-3.175
74
0
0
LTYPE
5
3D
330
5
100
AcDbSymbolTableRecord
100
AcDbLinetypeTableRecord
2
DIVIDEX2
70
0
3
Divide (2x) ________  .  .  ________  .  .  _
72
65
73
6
40
63.5
49
25.4
74
0
49
-12.7
74
0
49
0
74
0
49
-12.7
74
0
49
0
74
0
49
-12.7
74
0
0
LTYPE
5
3E
330
5
100
AcDbSymbolTableRecord
100
AcDbLinetypeTableRecord
2
BORDER
70
0
3
Border __ __ . __ __ . __ __ . __ __ . __ __ .
72
65
73
6
40
44.45
49
12.7
74
0
49
-6.35
74
0
49
12.7
74
0
49
-6.35
74
0
49
0
74
0
49
-6.35
74
0
0
LTYPE
5
3F
330
5
100
AcDbSymbolTableRecord
100
AcDbLinetypeTableRecord
2
BORDER2
70
0
3
Border (.5x) __.__.__.__.__.__.__.__.__.__.__.
72
65
73
6
40
22.225
49
6.35
74
0
49
-3.175
74
0
49
6.35
74
0
49
-3.175
74
0
49
0
74
0
49
-3.175
74
0
0
LTYPE
5
40
330
5
100
AcDbSymbolTableRecord
100
AcDbLinetypeTableRecord
2
BORDERX2
70
0
3
Border (2x) ____  ____  .  ____  ____  .  ___
72
65
73
6
40
88.9
49
25.4
74
0
49
-12.7
74
0
49
25.4
74
0
49
-12.7
74
0
49
0
74
0
49
-12.7
74
0
0
LTYPE
5
41
330
5
100
AcDbSymbolTableRecord
100
AcDbLinetypeTableRecord
2
CENTER
70
0
3
Center ____ _ ____ _ ____ _ ____ _ ____ _ ____
72
65
73
4
40
50.8
49
31.75
74
0
49
-6.35
74
0
49
6.35
74
0
49
-6.35
74
0
0
LTYPE
5
42
330
5
100
AcDbSymbolTableRecord
100
AcDbLinetypeTableRecord
2
CENTER2
70
0
3
Center (.5x) ___ _ ___ _ ___ _ ___ _ ___ _ ___
72
65
73
4
40
28.575
49
19.05
74
0
49
-3.175
74
0
49
3.175
74
0
49
-3.175
74
0
0
LTYPE
5
43
330
5
100
AcDbSymbolTableRecord
100
AcDbLinetypeTableRecord
2
CENTERX2
70
0
3
Center (2x) ________  __  ________  __  _____
72
65
73
4
40
101.6
49
63.5
74
0
49
-12.7
74
0
49
12.7
74
0
49
-12.7
74
0
0
ENDTAB
0
TABLE
2
LAYER
5
2
330
0
100
AcDbSymbolTable
70
1
0
LAYER
5
10
330
2
100
AcDbSymbolTableRecord
100
AcDbLayerTableRecord
2
0
70
0
62
7
6
CONTINUOUS
370
0
390
F
0
LAYER
5
44
330
2
100
AcDbSymbolTableRecord
100
AcDbLayerTableRecord
2
20Teeth
70
0
62
6
6
CONTINUOUS
370
0
390
F
0
LAYER
5
45
330
2
100
AcDbSymbolTableRecord
100
AcDbLayerTableRecord
2
Outside
70
0
62
3
6
CONTINUOUS
370
0
390
F
0
ENDTAB
0
TABLE
2
STYLE
5
3
330
0
100
AcDbSymbolTable
70
3
0
STYLE
5
46
330
2
100
AcDbSymbolTableRecord
100
AcDbTextStyleTableRecord
2
Standard
70
0
40
0
41
1
50
0
71
0
42
1
3
txt
4

0
ENDTAB
0
TABLE
2
VIEW
5
6
330
0
100
AcDbSymbolTable
70
0
0
ENDTAB
0
TABLE
2
UCS
5
7
330
0
100
AcDbSymbolTable
70
0
0
ENDTAB
0
TABLE
2
APPID
5
9
330
0
100
AcDbSymbolTable
70
1
0
APPID
5
12
330
9
100
AcDbSymbolTableRecord
100
AcDbRegAppTableRecord
2
ACAD
70
0
0
ENDTAB
0
TABLE
2
DIMSTYLE
5
A
330
0
100
AcDbSymbolTable
70
1
100
AcDbDimStyleTable
71
1
0
DIMSTYLE
105
47
330
A
100
AcDbSymbolTableRecord
100
AcDbDimStyleTableRecord
2
Standard
70
0
40
1
41
2.5
42
0.625
43
0.38
44
1.25
45
0
46
0
47
0
48
0
140
2.5
141
0.09
142
0
143
25.4
144
1
145
0
146
1
147
0.625
148
0
71
0
72
0
73
0
74
1
75
0
76
0
77
0
78
0
79
0
170
0
171
2
172
0
173
0
174
0
175
0
176
0
177
0
178
0
179
0
271
4
272
4
273
2
274
2
275
0
276
0
277
2
278
46
279
0
280
0
281
0
282
0
283
1
284
0
285
0
286
0
288
0
289
3
340
Standard
341

371
-2
372
-2
0
ENDTAB
0
TABLE
2
BLOCK_RECORD
5
1
330
0
100
AcDbSymbolTable
70
2
0
BLOCK_RECORD
5
1F
330
1
100
AcDbSymbolTableRecord
100
AcDbBlockTableRecord
2
*Model_Space
70
0
280
1
281
0
0
BLOCK_RECORD
5
1E
330
1
100
AcDbSymbolTableRecord
100
AcDbBlockTableRecord
2
*Paper_Space
70
0
280
1
281
0
0
ENDTAB
0
ENDSEC
0
SECTION
2
BLOCKS
0
BLOCK
5
20
330
1F
100
AcDbEntity
8
0
100
AcDbBlockBegin
2
*Model_Space
70
0
10
0
20
0
30
0
3
*Model_Space
1

0
ENDBLK
5
21
330
1F
100
AcDbEntity
8
0
100
AcDbBlockEnd
0
BLOCK
5
1C
330
1B
100
AcDbEntity
8
0
100
AcDbBlockBegin
2
*Paper_Space
70
0
10
0
20
0
30
0
3
*Paper_Space
1

0
ENDBLK
5
1D
330
1F
100
AcDbEntity
8
0
100
AcDbBlockEnd
0
ENDSEC
0
SECTION
2
ENTITIES
0
ARC
5
48
100
AcDbEntity
8
20Teeth
6
ByLayer
62
256
370
-1
100
AcDbCircle
10
-0.16665
20
6.1062
40
0.5
100
AcDbArc
50
180
51
270
0
LINE
5
49
100
AcDbEntity
8
20Teeth
6
ByLayer
62
256
370
-1
100
AcDbLine
10
-0.16665
20
5.6062
11
0.16665
21
5.6062
0
ARC
5
4A
100
AcDbEntity
8
20Teeth
6
ByLayer
62
256
370
-1
100
AcDbCircle
10
0.16665
20
6.1062
40
0.5
100
AcDbArc
50
270
51
0
0
LINE
5
4B
100
AcDbEntity
8
20Teeth
6
ByLayer
62
256
370
-1
100
AcDbLine
10
-0.995893091339
20
6.2878215139
11
-0.81665
21
6.2878215139
0
LINE
5
4C
100
AcDbEntity
8
20Teeth
6
ByLayer
62
256
370
-1
100
AcDbLine
10
-0.66665
20
6.1062
11
-0.66665
21
6.1378215139
0
ARC
5
4D
100
AcDbEntity
8
20Teeth
6
ByLayer
62
256
370
-1
100
AcDbCircle
10
-0.81665
20
6.1378215139
40
0.15
100
AcDbArc
50
0
51
90
0
ARC
5
4E
100
AcDbEntity
8
20Teeth
6
ByLayer
62
256
370
-1
100
AcDbCircle
10
0.81665
20
6.1378215139
40
0.15
100
AcDbArc
50
90
51
180
0
LINE
5
4F
100
AcDbEntity
8
20Teeth
6
ByLayer
62
256
370
-1
100
AcDbLine
10
0.66665
20
6.1062
11
0.66665
21
6.13782163311
0
LINE
5
50
100
AcDbEntity
8
20Teeth
6
ByLayer
62
256
370
-1
100
AcDbLine
10
0.81665
20
6.2878215139
11
0.995893091339
21
6.2878215139
0
ARC
5
51
100
AcDbEntity
8
20Teeth
6
ByLayer
62
256
370
-1
100
AcDbCircle
10
-2.04541313949
20
5.75584361769
40
0.5
100
AcDbArc
50
198
51
288
0
LINE
5
52
100
AcDbEntity
8
20Teeth
6
ByLayer
62
256
370
-1
100
AcDbLine
10
-1.89090464231
20
5.28031535954
11
-1.57391750542
21
5.38331072377
0
ARC
5
53
100
AcDbEntity
8
20Teeth
6
ByLayer
62
256
370
-1
100
AcDbCircle
10
-1.72842600261
20
5.85883898191
40
0.5
100
AcDbArc
50
288
51
18
0
LINE
5
54
100
AcDbEntity
8
20Teeth
6
ByLayer
62
256
370
-1
100
AcDbLine
10
-2.89019431944
20
5.67232573429
11
-2.71972400942
21
5.72771489564
0
LINE
5
55
100
AcDbEntity
8
20Teeth
6
ByLayer
62
256
370
-1
100
AcDbLine
10
-2.52094139764
20
5.6013351205
11
-2.53071298282
21
5.63140896735
0
ARC
5
56
100
AcDbEntity
8
20Teeth
6
ByLayer
62
256
370
-1
100
AcDbCircle
10
-2.67337146027
20
5.58505641819
40
0.15
100
AcDbArc
50
18
51
108
0
ARC
5
57
100
AcDbEntity
8
20Teeth
6
ByLayer
62
256
370
-1
100
AcDbCircle
10
-1.1200108522
20
6.0897738751
40
0.15
100
AcDbArc
50
108
51
198
0
LINE
5
58
100
AcDbEntity
8
20Teeth
6
ByLayer
62
256
370
-1
100
AcDbLine
10
-1.25289774446
20
6.0133474791
11
-1.26266936648
21
6.04342143932
0
LINE
5
59
100
AcDbEntity
8
20Teeth
6
ByLayer
62
256
370
-1
100
AcDbLine
10
-1.16636340136
20
6.23243235255
11
-0.995893091339
21
6.2878215139
0
ARC
5
5A
100
AcDbEntity
8
20Teeth
6
ByLayer
62
256
370
-1
100
AcDbCircle
10
-3.72395698966
20
4.84206515876
40
0.5
100
AcDbArc
50
216
51
306
0
LINE
5
5B
100
AcDbEntity
8
20Teeth
6
ByLayer
62
256
370
-1
100
AcDbLine
10
-3.43006436351
20
4.43755666157
11
-3.16041899929
21
4.63346548616
0
ARC
5
5C
100
AcDbEntity
8
20Teeth
6
ByLayer
62
256
370
-1
100
AcDbCircle
10
-3.45431162544
20
5.03797398335
40
0.5
100
AcDbArc
50
306
51
36
0
LINE
5
5D
100
AcDbEntity
8
20Teeth
6
ByLayer
62
256
370
-1
100
AcDbLine
10
-4.50158319039
20
4.50158319039
11
-4.35657248337
21
4.60693963605
0
LINE
5
5E
100
AcDbEntity
8
20Teeth
6
ByLayer
62
256
370
-1
100
AcDbLine
10
-4.12846548685
20
4.54817253261
11
-4.14705214637
21
4.57375487474
0
ARC
5
5F
100
AcDbEntity
8
20Teeth
6
ByLayer
62
256
370
-1
100
AcDbCircle
10
-4.26840469553
20
4.4855870869
40
0.15
100
AcDbArc
50
36
51
126
0
ARC
5
60
100
AcDbEntity
8
20Teeth
6
ByLayer
62
256
370
-1
100
AcDbCircle
10
-2.94703723862
20
5.44561673947
40
0.15
100
AcDbArc
50
126
51
216
0
LINE
5
61
100
AcDbEntity
8
20Teeth
6
ByLayer
62
256
370
-1
100
AcDbLine
10
-3.04980312825
20
5.33186660949
11
-3.06838985784
21
5.35744904807
0
LINE
5
62
100
AcDbEntity
8
20Teeth
6
ByLayer
62
256
370
-1
100
AcDbLine
10
-3.03520502646
20
5.56696928862
11
-2.89019431944
21
5.67232573429
0
ARC
5
63
100
AcDbEntity
8
20Teeth
6
ByLayer
62
256
370
-1
100
AcDbCircle
10
-5.03797398335
20
3.45431162544
40
0.5
100
AcDbArc
50
234
51
324
0
LINE
5
64
100
AcDbEntity
8
20Teeth
6
ByLayer
62
256
370
-1
100
AcDbLine
10
-4.63346548616
20
3.16041899929
11
-4.43755666157
21
3.43006436351
0
ARC
5
65
100
AcDbEntity
8
20Teeth
6
ByLayer
62
256
370
-1
100
AcDbCircle
10
-4.84206515876
20
3.72395698966
40
0.5
100
AcDbArc
50
324
51
54
0
LINE
5
66
100
AcDbEntity
8
20Teeth
6
ByLayer
62
256
370
-1
100
AcDbLine
10
-5.67232573429
20
2.89019431944
11
-5.56696928862
21
3.03520502646
0
LINE
5
67
100
AcDbEntity
8
20Teeth
6
ByLayer
62
256
370
-1
100
AcDbLine
10
-5.33186660949
20
3.04980312825
11
-5.35744895162
21
3.06838978777
0
ARC
5
68
100
AcDbEntity
8
20Teeth
6
ByLayer
62
256
370
-1
100
AcDbCircle
10
-5.44561673947
20
2.94703723862
40
0.15
100
AcDbArc
50
54
51
144
0
ARC
5
69
100
AcDbEntity
8
20Teeth
6
ByLayer
62
256
370
-1
100
AcDbCircle
10
-4.4855870869
20
4.26840469553
40
0.15
100
AcDbArc
50
144
51
234
0
LINE
5
6A
100
AcDbEntity
8
20Teeth
6
ByLayer
62
256
370
-1
100
AcDbLine
10
-4.54817253261
20
4.12846548685
11
-4.57375497118
21
4.14705221644
0
LINE
5
6B
100
AcDbEntity
8
20Teeth
6
ByLayer
62
256
370
-1
100
AcDbLine
10
-4.60693963605
20
4.35657248337
11
-4.50158319039
21
4.50158319039
0
ARC
5
6C
100
AcDbEntity
8
20Teeth
6
ByLayer
62
256
370
-1
100
AcDbCircle
10
-5.85883898191
20
1.72842600261
40
0.5
100
AcDbArc
50
252
51
342
0
LINE
5
6D
100
AcDbEntity
8
20Teeth
6
ByLayer
62
256
370
-1
100
AcDbLine
10
-5.38331072377
20
1.57391750542
11
-5.28031535954
21
1.89090464231
0
ARC
5
6E
100
AcDbEntity
8
20Teeth
6
ByLayer
62
256
370
-1
100
AcDbCircle
10
-5.75584361769
20
2.04541313949
40
0.5
100
AcDbArc
50
342
51
72
0
LINE
5
6F
100
AcDbEntity
8
20Teeth
6
ByLayer
62
256
370
-1
100
AcDbLine
10
-6.2878215139
20
0.995893091339
11
-6.23243235255
21
1.16636340136
0
LINE
5
70
100
AcDbEntity
8
20Teeth
6
ByLayer
62
256
370
-1
100
AcDbLine
10
-6.0133474791
20
1.25289774446
11
-6.04342132595
21
1.26266932965
0
ARC
5
71
100
AcDbEntity
8
20Teeth
6
ByLayer
62
256
370
-1
100
AcDbCircle
10
-6.0897738751
20
1.1200108522
40
0.15
100
AcDbArc
50
72
51
162
0
ARC
5
72
100
AcDbEntity
8
20Teeth
6
ByLayer
62
256
370
-1
100
AcDbCircle
10
-5.58505641819
20
2.67337146027
40
0.15
100
AcDbArc
50
162
51
252
0
LINE
5
73
100
AcDbEntity
8
20Teeth
6
ByLayer
62
256
370
-1
100
AcDbLine
10
-5.6013351205
20
2.52094139764
11
-5.63140908072
21
2.53071301966
0
LINE
5
74
100
AcDbEntity
8
20Teeth
6
ByLayer
62
256
370
-1
100
AcDbLine
10
-5.72771489564
20
2.71972400942
11
-5.67232573429
21
2.89019431944
0
ARC
5
75
100
AcDbEntity
8
20Teeth
6
ByLayer
62
256
370
-1
100
AcDbCircle
10
-6.1062
20
-0.16665
40
0.5
100
AcDbArc
50
270
51
360
0
LINE
5
76
100
AcDbEntity
8
20Teeth
6
ByLayer
62
256
370
-1
100
AcDbLine
10
-5.6062
20
-0.16665
11
-5.6062
21
0.16665
0
ARC
5
77
100
AcDbEntity
8
20Teeth
6
ByLayer
62
256
370
-1
100
AcDbCircle
10
-6.1062
20
0.16665
40
0.5
100
AcDbArc
50
360
51
90
0
LINE
5
78
100
AcDbEntity
8
20Teeth
6
ByLayer
62
256
370
-1
100
AcDbLine
10
-6.2878215139
20
-0.995893091339
11
-6.2878215139
21
-0.81665
0
LINE
5
79
100
AcDbEntity
8
20Teeth
6
ByLayer
62
256
370
-1
100
AcDbLine
10
-6.1062
20
-0.66665
11
-6.1378215139
21
-0.66665
0
ARC
5
7A
100
AcDbEntity
8
20Teeth
6
ByLayer
62
256
370
-1
100
AcDbCircle
10
-6.1378215139
20
-0.81665
40
0.15
100
AcDbArc
50
90
51
180
0
ARC
5
7B
100
AcDbEntity
8
20Teeth
6
ByLayer
62
256
370
-1
100
AcDbCircle
10
-6.1378215139
20
0.81665
40
0.15
100
AcDbArc
50
180
51
270
0
LINE
5
7C
100
AcDbEntity
8
20Teeth
6
ByLayer
62
256
370
-1
100
AcDbLine
10
-6.1062
20
0.66665
11
-6.13782163311
21
0.66665
0
LINE
5
7D
100
AcDbEntity
8
20Teeth
6
ByLayer
62
256
370
-1
100
AcDbLine
10
-6.2878215139
20
0.81665
11
-6.2878215139
21
0.995893091339
0
ARC
5
7E
100
AcDbEntity
8
20Teeth
6
ByLayer
62
256
370
-1
100
AcDbCircle
10
-5.75584361769
20
-2.04541313949
40
0.5
100
AcDbArc
50
288
51
18
0
LINE
5
7F
100
AcDbEntity
8
20Teeth
6
ByLayer
62
256
370
-1
100
AcDbLine
10
-5.28031535954
20
-1.89090464231
11
-5.38331072377
21
-1.57391750542
0
ARC
5
80
100
AcDbEntity
8
20Teeth
6
ByLayer
62
256
370
-1
100
AcDbCircle
10
-5.85883898191
20
-1.72842600261
40
0.5
100
AcDbArc
50
18
51
108
0
LINE
5
81
100
AcDbEntity
8
20Teeth
6
ByLayer
62
256
370
-1
100
AcDbLine
10
-5.67232573429
20
-2.89019431944
11
-5.72771489564
21
-2.71972400942
0
LINE
5
82
100
AcDbEntity
8
20Teeth
6
ByLayer
62
256
370
-1
100
AcDbLine
10
-5.6013351205
20
-2.52094139764
11
-5.63140896735
21
-2.53071298282
0
ARC
5
83
100
AcDbEntity
8
20Teeth
6
ByLayer
62
256
370
-1
100
AcDbCircle
10
-5.58505641819
20
-2.67337146027
40
0.15
100
AcDbArc
50
108
51
198
0
ARC
5
84
100
AcDbEntity
8
20Teeth
6
ByLayer
62
256
370
-1
100
AcDbCircle
10
-6.0897738751
20
-1.1200108522
40
0.15
100
AcDbArc
50
198
51
288
0
LINE
5
85
100
AcDbEntity
8
20Teeth
6
ByLayer
62
256
370
-1
100
AcDbLine
10
-6.0133474791
20
-1.25289774446
11
-6.04342143932
21
-1.26266936648
0
LINE
5
86
100
AcDbEntity
8
20Teeth
6
ByLayer
62
256
370
-1
100
AcDbLine
10
-6.23243235255
20
-1.16636340136
11
-6.2878215139
21
-0.995893091339
0
ARC
5
87
100
AcDbEntity
8
20Teeth
6
ByLayer
62
256
370
-1
100
AcDbCircle
10
-4.84206515876
20
-3.72395698966
40
0.5
100
AcDbArc
50
306
51
36
0
LINE
5
88
100
AcDbEntity
8
20Teeth
6
ByLayer
62
256
370
-1
100
AcDbLine
10
-4.43755666157
20
-3.43006436351
11
-4.63346548616
21
-3.16041899929
0
ARC
5
89
100
AcDbEntity
8
20Teeth
6
ByLayer
62
256
370
-1
100
AcDbCircle
10
-5.03797398335
20
-3.45431162544
40
0.5
100
AcDbArc
50
36
51
126
0
LINE
5
8A
100
AcDbEntity
8
20Teeth
6
ByLayer
62
256
370
-1
100
AcDbLine
10
-4.50158319039
20
-4.50158319039
11
-4.60693963605
21
-4.35657248337
0
LINE
5
8B
100
AcDbEntity
8
20Teeth
6
ByLayer
62
256
370
-1
100
AcDbLine
10
-4.54817253261
20
-4.12846548685
11
-4.57375487474
21
-4.14705214637
0
ARC
5
8C
100
AcDbEntity
8
20Teeth
6
ByLayer
62
256
370
-1
100
AcDbCircle
10
-4.4855870869
20
-4.26840469553
40
0.15
100
AcDbArc
50
126
51
216
0
ARC
5
8D
100
AcDbEntity
8
20Teeth
6
ByLayer
62
256
370
-1
100
AcDbCircle
10
-5.44561673947
20
-2.94703723862
40
0.15
100
AcDbArc
50
216
51
306
0
LINE
5
8E
100
AcDbEntity
8
20Teeth
6
ByLayer
62
256
370
-1
100
AcDbLine
10
-5.33186660949
20
-3.04980312825
11
-5.35744904807
21
-3.06838985784
0
LINE
5
8F
100
AcDbEntity
8
20Teeth
6
ByLayer
62
256
370
-1
100
AcDbLine
10
-5.56696928862
20
-3.03520502646
11
-5.67232573429
21
-2.89019431944
0
ARC
5
90
100
AcDbEntity
8
20Teeth
6
ByLayer
62
256
370
-1
100
AcDbCircle
10
-3.45431162544
20
-5.03797398335
40
0.5
100
AcDbArc
50
324
51
54
0
LINE
5
91
100
AcDbEntity
8
20Teeth
6
ByLayer
62
256
370
-1
100
AcDbLine
10
-3.16041899929
20
-4.63346548616
11
-3.43006436351
21
-4.43755666157
0
ARC
5
92
100
AcDbEntity
8
20Teeth
6
ByLayer
62
256
370
-1
100
AcDbCircle
10
-3.72395698966
20
-4.84206515876
40
0.5
100
AcDbArc
50
54
51
144
0
LINE
5
93
100
AcDbEntity
8
20Teeth
6
ByLayer
62
256
370
-1
100
AcDbLine
10
-2.89019431944
20
-5.67232573429
11
-3.03520502646
21
-5.56696928862
0
LINE
5
94
100
AcDbEntity
8
20Teeth
6
ByLayer
62
256
370
-1
100
AcDbLine
10
-3.04980312825
20
-5.33186660949
11
-3.06838978777
21
-5.35744895162
0
ARC
5
95
100
AcDbEntity
8
20Teeth
6
ByLayer
62
256
370
-1
100
AcDbCircle
10
-2.94703723862
20
-5.44561673947
40
0.15
100
AcDbArc
50
144
51
234
0
ARC
5
96
100
AcDbEntity
8
20Teeth
6
ByLayer
62
256
370
-1
100
AcDbCircle
10
-4.26840469553
20
-4.4855870869
40
0.15
100
AcDbArc
50
234
51
324
0
LINE
5
97
100
AcDbEntity
8
20Teeth
6
ByLayer
62
256
370
-1
100
AcDbLine
10
-4.12846548685
20
-4.54817253261
11
-4.14705221644
21
-4.57375497118
0
LINE
5
98
100
AcDbEntity
8
20Teeth
6
ByLayer
62
256
370
-1
100
AcDbLine
10
-4.35657248337
20
-4.60693963605
11
-4.50158319039
21
-4.50158319039
0
ARC
5
99
100
AcDbEntity
8
20Teeth
6
ByLayer
62
256
370
-1
100
AcDbCircle
10
-1.72842600261
20
-5.85883898191
40
0.5
100
AcDbArc
50
342
51
72
0
LINE
5
9A
100
AcDbEntity
8
20Teeth
6
ByLayer
62
256
370
-1
100
AcDbLine
10
-1.57391750542
20
-5.38331072377
11
-1.89090464231
21
-5.28031535954
0
ARC
5
9B
100
AcDbEntity
8
20Teeth
6
ByLayer
62
256
370
-1
100
AcDbCircle
10
-2.04541313949
20
-5.75584361769
40
0.5
100
AcDbArc
50
72
51
162
0
LINE
5
9C
100
AcDbEntity
8
20Teeth
6
ByLayer
62
256
370
-1
100
AcDbLine
10
-0.995893091339
20
-6.2878215139
11
-1.16636340136
21
-6.23243235255
0
LINE
5
9D
100
AcDbEntity
8
20Teeth
6
ByLayer
62
256
370
-1
100
AcDbLine
10
-1.25289774446
20
-6.0133474791
11
-1.26266932965
21
-6.04342132595
0
ARC
5
9E
100
AcDbEntity
8
20Teeth
6
ByLayer
62
256
370
-1
100
AcDbCircle
10
-1.1200108522
20
-6.0897738751
40
0.15
100
AcDbArc
50
162
51
252
0
ARC
5
9F
100
AcDbEntity
8
20Teeth
6
ByLayer
62
256
370
-1
100
AcDbCircle
10
-2.67337146027
20
-5.58505641819
40
0.15
100
AcDbArc
50
252
51
342
0
LINE
5
A0
100
AcDbEntity
8
20Teeth
6
ByLayer
62
256
370
-1
100
AcDbLine
10
-2.52094139764
20
-5.6013351205
11
-2.53071301966
21
-5.63140908072
0
LINE
5
A1
100
AcDbEntity
8
20Teeth
6
ByLayer
62
256
370
-1
100
AcDbLine
10
-2.71972400942
20
-5.72771489564
11
-2.89019431944
21
-5.67232573429
0
ARC
5
A2
100
AcDbEntity
8
20Teeth
6
ByLayer
62
256
370
-1
100
AcDbCircle
10
0.16665
20
-6.1062
40
0.5
100
AcDbArc
50
360
51
90
0
LINE
5
A3
100
AcDbEntity
8
20Teeth
6
ByLayer
62
256
370
-1
100
AcDbLine
10
0.16665
20
-5.6062
11
-0.16665
21
-5.6062
0
ARC
5
A4
100
AcDbEntity
8
20Teeth
6
ByLayer
62
256
370
-1
100
AcDbCircle
10
-0.16665
20
-6.1062
40
0.5
100
AcDbArc
50
90
51
180
0
LINE
5
A5
100
AcDbEntity
8
20Teeth
6
ByLayer
62
256
370
-1
100
AcDbLine
10
0.995893091339
20
-6.2878215139
11
0.81665
21
-6.2878215139
0
LINE
5
A6
100
AcDbEntity
8
20Teeth
6
ByLayer
62
256
370
-1
100
AcDbLine
10
0.66665
20
-6.1062
11
0.66665
21
-6.1378215139
0
ARC
5
A7
100
AcDbEntity
8
20Teeth
6
ByLayer
62
256
370
-1
100
AcDbCircle
10
0.81665
20
-6.1378215139
40
0.15
100
AcDbArc
50
180
51
270
0
ARC
5
A8
100
AcDbEntity
8
20Teeth
6
ByLayer
62
256
370
-1
100
AcDbCircle
10
-0.81665
20
-6.1378215139
40
0.15
100
AcDbArc
50
270
51
360
0
LINE
5
A9
100
AcDbEntity
8
20Teeth
6
ByLayer
62
256
370
-1
100
AcDbLine
10
-0.66665
20
-6.1062
11
-0.66665
21
-6.13782163311
0
LINE
5
AA
100
AcDbEntity
8
20Teeth
6
ByLayer
62
256
370
-1
100
AcDbLine
10
-0.81665
20
-6.2878215139
11
-0.995893091339
21
-6.2878215139
0
ARC
5
AB
100
AcDbEntity
8
20Teeth
6
ByLayer
62
256
370
-1
100
AcDbCircle
10
2.04541313949
20
-5.75584361769
40
0.5
100
AcDbArc
50
18
51
108
0
LINE
5
AC
100
AcDbEntity
8
20Teeth
6
ByLayer
62
256
370
-1
100
AcDbLine
10
1.89090464231
20
-5.28031535954
11
1.57391750542
21
-5.38331072377
0
ARC
5
AD
100
AcDbEntity
8
20Teeth
6
ByLayer
62
256
370
-1
100
AcDbCircle
10
1.72842600261
20
-5.85883898191
40
0.5
100
AcDbArc
50
108
51
198
0
LINE
5
AE
100
AcDbEntity
8
20Teeth
6
ByLayer
62
256
370
-1
100
AcDbLine
10
2.89019431944
20
-5.67232573429
11
2.71972400942
21
-5.72771489564
0
LINE
5
AF
100
AcDbEntity
8
20Teeth
6
ByLayer
62
256
370
-1
100
AcDbLine
10
2.52094139764
20
-5.6013351205
11
2.53071298282
21
-5.63140896735
0
ARC
5
B0
100
AcDbEntity
8
20Teeth
6
ByLayer
62
256
370
-1
100
AcDbCircle
10
2.67337146027
20
-5.58505641819
40
0.15
100
AcDbArc
50
198
51
288
0
ARC
5
B1
100
AcDbEntity
8
20Teeth
6
ByLayer
62
256
370
-1
100
AcDbCircle
10
1.1200108522
20
-6.0897738751
40
0.15
100
AcDbArc
50
288
51
18
0
LINE
5
B2
100
AcDbEntity
8
20Teeth
6
ByLayer
62
256
370
-1
100
AcDbLine
10
1.25289774446
20
-6.0133474791
11
1.26266936648
21
-6.04342143932
0
LINE
5
B3
100
AcDbEntity
8
20Teeth
6
ByLayer
62
256
370
-1
100
AcDbLine
10
1.16636340136
20
-6.23243235255
11
0.995893091339
21
-6.2878215139
0
ARC
5
B4
100
AcDbEntity
8
20Teeth
6
ByLayer
62
256
370
-1
100
AcDbCircle
10
3.72395698966
20
-4.84206515876
40
0.5
100
AcDbArc
50
36
51
126
0
LINE
5
B5
100
AcDbEntity
8
20Teeth
6
ByLayer
62
256
370
-1
100
AcDbLine
10
3.43006436351
20
-4.43755666157
11
3.16041899929
21
-4.63346548616
0
ARC
5
B6
100
AcDbEntity
8
20Teeth
6
ByLayer
62
256
370
-1
100
AcDbCircle
10
3.45431162544
20
-5.03797398335
40
0.5
100
AcDbArc
50
126
51
216
0
LINE
5
B7
100
AcDbEntity
8
20Teeth
6
ByLayer
62
256
370
-1
100
AcDbLine
10
4.50158319039
20
-4.50158319039
11
4.35657248337
21
-4.60693963605
0
LINE
5
B8
100
AcDbEntity
8
20Teeth
6
ByLayer
62
256
370
-1
100
AcDbLine
10
4.12846548685
20
-4.54817253261
11
4.14705214637
21
-4.57375487474
0
ARC
5
B9
100
AcDbEntity
8
20Teeth
6
ByLayer
62
256
370
-1
100
AcDbCircle
10
4.26840469553
20
-4.4855870869
40
0.15
100
AcDbArc
50
216
51
306
0
ARC
5
BA
100
AcDbEntity
8
20Teeth
6
ByLayer
62
256
370
-1
100
AcDbCircle
10
2.94703723862
20
-5.44561673947
40
0.15
100
AcDbArc
50
306
51
36
0
LINE
5
BB
100
AcDbEntity
8
20Teeth
6
ByLayer
62
256
370
-1
100
AcDbLine
10
3.04980312825
20
-5.33186660949
11
3.06838985784
21
-5.35744904807
0
LINE
5
BC
100
AcDbEntity
8
20Teeth
6
ByLayer
62
256
370
-1
100
AcDbLine
10
3.03520502646
20
-5.56696928862
11
2.89019431944
21
-5.67232573429
0
ARC
5
BD
100
AcDbEntity
8
20Teeth
6
ByLayer
62
256
370
-1
100
AcDbCircle
10
5.03797398335
20
-3.45431162544
40
0.5
100
AcDbArc
50
54
51
144
0
LINE
5
BE
100
AcDbEntity
8
20Teeth
6
ByLayer
62
256
370
-1
100
AcDbLine
10
4.63346548616
20
-3.16041899929
11
4.43755666157
21
-3.43006436351
0
ARC
5
BF
100
AcDbEntity
8
20Teeth
6
ByLayer
62
256
370
-1
100
AcDbCircle
10
4.84206515876
20
-3.72395698966
40
0.5
100
AcDbArc
50
144
51
234
0
LINE
5
C0
100
AcDbEntity
8
20Teeth
6
ByLayer
62
256
370
-1
100
AcDbLine
10
5.67232573429
20
-2.89019431944
11
5.56696928862
21
-3.03520502646
0
LINE
5
C1
100
AcDbEntity
8
20Teeth
6
ByLayer
62
256
370
-1
100
AcDbLine
10
5.33186660949
20
-3.04980312825
11
5.35744895162
21
-3.06838978777
0
ARC
5
C2
100
AcDbEntity
8
20Teeth
6
ByLayer
62
256
370
-1
100
AcDbCircle
10
5.44561673947
20
-2.94703723862
40
0.15
100
AcDbArc
50
234
51
324
0
ARC
5
C3
100
AcDbEntity
8
20Teeth
6
ByLayer
62
256
370
-1
100
AcDbCircle
10
4.4855870869
20
-4.26840469553
40
0.15
100
AcDbArc
50
324
51
54
0
LINE
5
C4
100
AcDbEntity
8
20Teeth
6
ByLayer
62
256
370
-1
100
AcDbLine
10
4.54817253261
20
-4.12846548685
11
4.57375497118
21
-4.14705221644
0
LINE
5
C5
100
AcDbEntity
8
20Teeth
6
ByLayer
62
256
370
-1
100
AcDbLine
10
4.60693963605
20
-4.35657248337
11
4.50158319039
21
-4.50158319039
0
ARC
5
C6
100
AcDbEntity
8
20Teeth
6
ByLayer
62
256
370
-1
100
AcDbCircle
10
5.85883898191
20
-1.72842600261
40
0.5
100
AcDbArc
50
72
51
162
0
LINE
5
C7
100
AcDbEntity
8
20Teeth
6
ByLayer
62
256
370
-1
100
AcDbLine
10
5.38331072377
20
-1.57391750542
11
5.28031535954
21
-1.89090464231
0
ARC
5
C8
100
AcDbEntity
8
20Teeth
6
ByLayer
62
256
370
-1
100
AcDbCircle
10
5.75584361769
20
-2.04541313949
40
0.5
100
AcDbArc
50
162
51
252
0
LINE
5
C9
100
AcDbEntity
8
20Teeth
6
ByLayer
62
256
370
-1
100
AcDbLine
10
6.2878215139
20
-0.995893091339
11
6.23243235255
21
-1.16636340136
0
LINE
5
CA
100
AcDbEntity
8
20Teeth
6
ByLayer
62
256
370
-1
100
AcDbLine
10
6.0133474791
20
-1.25289774446
11
6.04342132595
21
-1.26266932965
0
ARC
5
CB
100
AcDbEntity
8
20Teeth
6
ByLayer
62
256
370
-1
100
AcDbCircle
10
6.0897738751
20
-1.1200108522
40
0.15
100
AcDbArc
50
252
51
342
0
ARC
5
CC
100
AcDbEntity
8
20Teeth
6
ByLayer
62
256
370
-1
100
AcDbCircle
10
5.58505641819
20
-2.67337146027
40
0.15
100
AcDbArc
50
342
51
72
0
LINE
5
CD
100
AcDbEntity
8
20Teeth
6
ByLayer
62
256
370
-1
100
AcDbLine
10
5.6013351205
20
-2.52094139764
11
5.63140908072
21
-2.53071301966
0
LINE
5
CE
100
AcDbEntity
8
20Teeth
6
ByLayer
62
256
370
-1
100
AcDbLine
10
5.72771489564
20
-2.71972400942
11
5.67232573429
21
-2.89019431944
0
ARC
5
CF
100
AcDbEntity
8
20Teeth
6
ByLayer
62
256
370
-1
100
AcDbCircle
10
6.1062
20
0.16665
40
0.5
100
AcDbArc
50
90
51
180
0
LINE
5
D0
100
AcDbEntity
8
20Teeth
6
ByLayer
62
256
370
-1
100
AcDbLine
10
5.6062
20
0.16665
11
5.6062
21
-0.16665
0
ARC
5
D1
100
AcDbEntity
8
20Teeth
6
ByLayer
62
256
370
-1
100
AcDbCircle
10
6.1062
20
-0.16665
40
0.5
100
AcDbArc
50
180
51
270
0
LINE
5
D2
100
AcDbEntity
8
20Teeth
6
ByLayer
62
256
370
-1
100
AcDbLine
10
6.2878215139
20
0.995893091339
11
6.2878215139
21
0.81665
0
LINE
5
D3
100
AcDbEntity
8
20Teeth
6
ByLayer
62
256
370
-1
100
AcDbLine
10
6.1062
20
0.66665
11
6.1378215139
21
0.66665
0
ARC
5
D4
100
AcDbEntity
8
20Teeth
6
ByLayer
62
256
370
-1
100
AcDbCircle
10
6.1378215139
20
0.81665
40
0.15
100
AcDbArc
50
270
51
360
0
ARC
5
D5
100
AcDbEntity
8
20Teeth
6
ByLayer
62
256
370
-1
100
AcDbCircle
10
6.1378215139
20
-0.81665
40
0.15
100
AcDbArc
50
360
51
90
0
LINE
5
D6
100
AcDbEntity
8
20Teeth
6
ByLayer
62
256
370
-1
100
AcDbLine
10
6.1062
20
-0.66665
11
6.13782163311
21
-0.66665
0
LINE
5
D7
100
AcDbEntity
8
20Teeth
6
ByLayer
62
256
370
-1
100
AcDbLine
10
6.2878215139
20
-0.81665
11
6.2878215139
21
-0.995893091339
0
ARC
5
D8
100
AcDbEntity
8
20Teeth
6
ByLayer
62
256
370
-1
100
AcDbCircle
10
5.75584361769
20
2.04541313949
40
0.5
100
AcDbArc
50
108
51
198
0
LINE
5
D9
100
AcDbEntity
8
20Teeth
6
ByLayer
62
256
370
-1
100
AcDbLine
10
5.28031535954
20
1.89090464231
11
5.38331072377
21
1.57391750542
0
ARC
5
DA
100
AcDbEntity
8
20Teeth
6
ByLayer
62
256
370
-1
100
AcDbCircle
10
5.85883898191
20
1.72842600261
40
0.5
100
AcDbArc
50
198
51
288
0
LINE
5
DB
100
AcDbEntity
8
20Teeth
6
ByLayer
62
256
370
-1
100
AcDbLine
10
5.67232573429
20
2.89019431944
11
5.72771489564
21
2.71972400942
0
LINE
5
DC
100
AcDbEntity
8
20Teeth
6
ByLayer
62
256
370
-1
100
AcDbLine
10
5.6013351205
20
2.52094139764
11
5.63140896735
21
2.53071298282
0
ARC
5
DD
100
AcDbEntity
8
20Teeth
6
ByLayer
62
256
370
-1
100
AcDbCircle
10
5.58505641819
20
2.67337146027
40
0.15
100
AcDbArc
50
288
51
18
0
ARC
5
DE
100
AcDbEntity
8
20Teeth
6
ByLayer
62
256
370
-1
100
AcDbCircle
10
6.0897738751
20
1.1200108522
40
0.15
100
AcDbArc
50
18
51
108
0
LINE
5
DF
100
AcDbEntity
8
20Teeth
6
ByLayer
62
256
370
-1
100
AcDbLine
10
6.0133474791
20
1.25289774446
11
6.04342143932
21
1.26266936648
0
LINE
5
E0
100
AcDbEntity
8
20Teeth
6
ByLayer
62
256
370
-1
100
AcDbLine
10
6.23243235255
20
1.16636340136
11
6.2878215139
21
0.995893091339
0
ARC
5
E1
100
AcDbEntity
8
20Teeth
6
ByLayer
62
256
370
-1
100
AcDbCircle
10
4.84206515876
20
3.72395698966
40
0.5
100
AcDbArc
50
126
51
216
0
LINE
5
E2
100
AcDbEntity
8
20Teeth
6
ByLayer
62
256
370
-1
100
AcDbLine
10
4.43755666157
20
3.43006436351
11
4.63346548616
21
3.16041899929
0
ARC
5
E3
100
AcDbEntity
8
20Teeth
6
ByLayer
62
256
370
-1
100
AcDbCircle
10
5.03797398335
20
3.45431162544
40
0.5
100
AcDbArc
50
216
51
306
0
LINE
5
E4
100
AcDbEntity
8
20Teeth
6
ByLayer
62
256
370
-1
100
AcDbLine
10
4.50158319039
20
4.50158319039
11
4.60693963605
21
4.35657248337
0
LINE
5
E5
100
AcDbEntity
8
20Teeth
6
ByLayer
62
256
370
-1
100
AcDbLine
10
4.54817253261
20
4.12846548685
11
4.57375487474
21
4.14705214637
0
ARC
5
E6
100
AcDbEntity
8
20Teeth
6
ByLayer
62
256
370
-1
100
AcDbCircle
10
4.4855870869
20
4.26840469553
40
0.15
100
AcDbArc
50
306
51
36
0
ARC
5
E7
100
AcDbEntity
8
20Teeth
6
ByLayer
62
256
370
-1
100
AcDbCircle
10
5.44561673947
20
2.94703723862
40
0.15
100
AcDbArc
50
36
51
126
0
LINE
5
E8
100
AcDbEntity
8
20Teeth
6
ByLayer
62
256
370
-1
100
AcDbLine
10
5.33186660949
20
3.04980312825
11
5.35744904807
21
3.06838985784
0
LINE
5
E9
100
AcDbEntity
8
20Teeth
6
ByLayer
62
256
370
-1
100
AcDbLine
10
5.56696928862
20
3.03520502646
11
5.67232573429
21
2.89019431944
0
ARC
5
EA
100
AcDbEntity
8
20Teeth
6
ByLayer
62
256
370
-1
100
AcDbCircle
10
3.45431162544
20
5.03797398335
40
0.5
100
AcDbArc
50
144
51
234
0
LINE
5
EB
100
AcDbEntity
8
20Teeth
6
ByLayer
62
256
370
-1
100
AcDbLine
10
3.16041899929
20
4.63346548616
11
3.43006436351
21
4.43755666157
0
ARC
5
EC
100
AcDbEntity
8
20Teeth
6
ByLayer
62
256
370
-1
100
AcDbCircle
10
3.72395698966
20
4.84206515876
40
0.5
100
AcDbArc
50
234
51
324
0
LINE
5
ED
100
AcDbEntity
8
20Teeth
6
ByLayer
62
256
370
-1
100
AcDbLine
10
2.89019431944
20
5.67232573429
11
3.03520502646
21
5.56696928862
0
LINE
5
EE
100
AcDbEntity
8
20Teeth
6
ByLayer
62
256
370
-1
100
AcDbLine
10
3.04980312825
20
5.33186660949
11
3.06838978777
21
5.35744895162
0
ARC
5
EF
100
AcDbEntity
8
20Teeth
6
ByLayer
62
256
370
-1
100
AcDbCircle
10
2.94703723862
20
5.44561673947
40
0.15
100
AcDbArc
50
324
51
54
0
ARC
5
F0
100
AcDbEntity
8
20Teeth
6
ByLayer
62
256
370
-1
100
AcDbCircle
10
4.26840469553
20
4.4855870869
40
0.15
100
AcDbArc
50
54
51
144
0
LINE
5
F1
100
AcDbEntity
8
20Teeth
6
ByLayer
62
256
370
-1
100
AcDbLine
10
4.12846548685
20
4.54817253261
11
4.14705221644
21
4.57375497118
0
LINE
5
F2
100
AcDbEntity
8
20Teeth
6
ByLayer
62
256
370
-1
100
AcDbLine
10
4.35657248337
20
4.60693963605
11
4.50158319039
21
4.50158319039
0
ARC
5
F3
100
AcDbEntity
8
20Teeth
6
ByLayer
62
256
370
-1
100
AcDbCircle
10
1.72842600261
20
5.85883898191
40
0.5
100
AcDbArc
50
162
51
252
0
LINE
5
F4
100
AcDbEntity
8
20Teeth
6
ByLayer
62
256
370
-1
100
AcDbLine
10
1.57391750542
20
5.38331072377
11
1.89090464231
21
5.28031535954
0
ARC
5
F5
100
AcDbEntity
8
20Teeth
6
ByLayer
62
256
370
-1
100
AcDbCircle
10
2.04541313949
20
5.75584361769
40
0.5
100
AcDbArc
50
252
51
342
0
LINE
5
F6
100
AcDbEntity
8
20Teeth
6
ByLayer
62
256
370
-1
100
AcDbLine
10
0.995893091339
20
6.2878215139
11
1.16636340136
21
6.23243235255
0
LINE
5
F7
100
AcDbEntity
8
20Teeth
6
ByLayer
62
256
370
-1
100
AcDbLine
10
1.25289774446
20
6.0133474791
11
1.26266932965
21
6.04342132595
0
ARC
5
F8
100
AcDbEntity
8
20Teeth
6
ByLayer
62
256
370
-1
100
AcDbCircle
10
1.1200108522
20
6.0897738751
40
0.15
100
AcDbArc
50
342
51
72
0
ARC
5
F9
100
AcDbEntity
8
20Teeth
6
ByLayer
62
256
370
-1
100
AcDbCircle
10
2.67337146027
20
5.58505641819
40
0.15
100
AcDbArc
50
72
51
162
0
LINE
5
FA
100
AcDbEntity
8
20Teeth
6
ByLayer
62
256
370
-1
100
AcDbLine
10
2.52094139764
20
5.6013351205
11
2.53071301966
21
5.63140908072
0
LINE
5
FB
100
AcDbEntity
8
20Teeth
6
ByLayer
62
256
370
-1
100
AcDbLine
10
2.71972400942
20
5.72771489564
11
2.89019431944
21
5.67232573429
0
ARC
5
FC
100
AcDbEntity
8
20Teeth
6
ByLayer
62
256
370
-1
100
AcDbCircle
10
-0.16665
20
6.1062
40
0.5
100
AcDbArc
50
180
51
270
0
LINE
5
FD
100
AcDbEntity
8
20Teeth
6
ByLayer
62
256
370
-1
100
AcDbLine
10
-0.16665
20
5.6062
11
0.16665
21
5.6062
0
ARC
5
FE
100
AcDbEntity
8
20Teeth
6
ByLayer
62
256
370
-1
100
AcDbCircle
10
0.16665
20
6.1062
40
0.5
100
AcDbArc
50
270
51
360
0
LINE
5
FF
100
AcDbEntity
8
20Teeth
6
ByLayer
62
256
370
-1
100
AcDbLine
10
-0.995893091339
20
6.2878215139
11
-0.81665
21
6.2878215139
0
LINE
5
100
100
AcDbEntity
8
20Teeth
6
ByLayer
62
256
370
-1
100
AcDbLine
10
-0.66665
20
6.1062
11
-0.66665
21
6.1378215139
0
ARC
5
101
100
AcDbEntity
8
20Teeth
6
ByLayer
62
256
370
-1
100
AcDbCircle
10
-0.81665
20
6.1378215139
40
0.15
100
AcDbArc
50
360
51
90
0
ARC
5
102
100
AcDbEntity
8
20Teeth
6
ByLayer
62
256
370
-1
100
AcDbCircle
10
0.81665
20
6.1378215139
40
0.15
100
AcDbArc
50
90
51
180
0
LINE
5
103
100
AcDbEntity
8
20Teeth
6
ByLayer
62
256
370
-1
100
AcDbLine
10
0.66665
20
6.1062
11
0.66665
21
6.13782163311
0
LINE
5
104
100
AcDbEntity
8
20Teeth
6
ByLayer
62
256
370
-1
100
AcDbLine
10
0.81665
20
6.2878215139
11
0.995893091339
21
6.2878215139
0
CIRCLE
5
105
100
AcDbEntity
8
Outside
6
ByLayer
62
256
370
-1
100
AcDbCircle
10
0
20
0
40
7.5
0
ENDSEC
0
SECTION
2
OBJECTS
0
DICTIONARY
5
C
330
0
100
AcDbDictionary
281
1
3
ACAD_GROUP
350
D
0
DICTIONARY
5
D
330
C
100
AcDbDictionary
281
1
0
ENDSEC
0
EOF
