999
dxfrw 0.5.10
0
SECTION
2
HEADER
9
$ACADVER
1
AC1021
9
$HANDSEED
5
20000
9
$DWGCODEPAGE
3
ANSI_1252
9
$INSBASE
10
0
20
0
30
0
9
$EXTMIN
10
-39.0152000001
20
-33
30
0
9
$EXTMAX
10
38.9893950357
20
36
30
0
9
$LIMMIN
10
0
20
0
9
$LIMMAX
10
420
20
297
9
$ORTHOMODE
70
0
9
$LTSCALE
40
1
9
$TEXTSTYLE
7
Standard
9
$CLAYER
8
PRINCIPAL
9
$DIMASZ
40
3.302
9
$DIMLFAC
40
1
9
$DIMSCALE
40
1
9
$DIMEXO
40
1
9
$DIMEXE
40
1
9
$DIMTXT
40
3.5
9
$DIMTSZ
40
0
9
$DIMAUNIT
70
0
9
$DIMADEC
70
0
9
$DIMLUNIT
70
2
9
$DIMSTYLE
2
ISO-25
9
$DIMGAP
40
1.524
9
$DIMTIH
70
1
9
$LUNITS
70
2
9
$LUPREC
70
2
9
$AUNITS
70
0
9
$AUPREC
70
2
9
$SPLINESEGS
70
8
9
$GRIDMODE
70
0
9
$SNAPSTYLE
70
0
9
$PINSBASE
10
0
20
0
30
0
9
$PLIMMIN
10
0
20
0
9
$PLIMMAX
10
420
20
297
9
$INSUNITS
70
4
9
$PSVPSCALE
40
0
0
ENDSEC
0
SECTION
2
CLASSES
0
ENDSEC
0
SECTION
2
TABLES
0
TABLE
2
VPORT
5
8
330
0
100
AcDbSymbolTable
70
1
0
VPORT
5
31
330
2
100
AcDbSymbolTableRecord
100
AcDbViewportTableRecord
2
*ACTIVE
70
0
10
0
20
0
11
1
21
1
12
17.1294985591
22
17.0276887608
13
0
23
0
14
10
24
10
15
10
25
10
16
0
26
0
36
1
17
0
27
0
37
0
40
36.3460979827
41
1.79131652661
42
50
43
0
44
0
50
0
51
0
71
0
72
100
73
1
74
3
75
0
76
0
77
0
78
0
281
0
65
1
110
0
120
0
130
0
111
1
121
0
131
0
112
0
122
1
132
0
79
0
146
0
348
10020
60
7
61
5
292
1
282
1
141
0
142
0
63
250
421
3358443
0
ENDTAB
0
TABLE
2
LTYPE
5
5
330
0
100
AcDbSymbolTable
70
4
0
LTYPE
5
14
330
5
100
AcDbSymbolTableRecord
100
AcDbLinetypeTableRecord
2
ByBlock
70
0
3

72
65
73
0
40
0
0
LTYPE
5
15
330
5
100
AcDbSymbolTableRecord
100
AcDbLinetypeTableRecord
2
ByLayer
70
0
3

72
65
73
0
40
0
0
LTYPE
5
16
330
5
100
AcDbSymbolTableRecord
100
AcDbLinetypeTableRecord
2
Continuous
70
0
3
Solid line
72
65
73
0
40
0
0
LTYPE
5
32
330
5
100
AcDbSymbolTableRecord
100
AcDbLinetypeTableRecord
2
DOT
70
0
3
Dot . . . . . . . . . . . . . . . . . . . . . .
72
65
73
2
40
6.35
49
0
74
0
49
-6.35
74
0
0
LTYPE
5
33
330
5
100
AcDbSymbolTableRecord
100
AcDbLinetypeTableRecord
2
DOT2
70
0
3
Dot (.5x) .....................................
72
65
73
2
40
3.175
49
0
74
0
49
-3.175
74
0
0
LTYPE
5
34
330
5
100
AcDbSymbolTableRecord
100
AcDbLinetypeTableRecord
2
DOTX2
70
0
3
Dot (2x) .  .  .  .  .  .  .  .  .  .  .  .  .
72
65
73
2
40
12.7
49
0
74
0
49
-12.7
74
0
0
LTYPE
5
35
330
5
100
AcDbSymbolTableRecord
100
AcDbLinetypeTableRecord
2
DASHED
70
0
3
Dot . . . . . . . . . . . . . . . . . . . . . .
72
65
73
2
40
19.05
49
12.7
74
0
49
-6.35
74
0
0
LTYPE
5
36
330
5
100
AcDbSymbolTableRecord
100
AcDbLinetypeTableRecord
2
DASHED2
70
0
3
Dashed (.5x) _ _ _ _ _ _ _ _ _ _ _ _ _ _ _ _ _
72
65
73
2
40
9.525
49
6.35
74
0
49
-3.175
74
0
0
LTYPE
5
37
330
5
100
AcDbSymbolTableRecord
100
AcDbLinetypeTableRecord
2
DASHEDX2
70
0
3
Dashed (2x) ____  ____  ____  ____  ____  ___
72
65
73
2
40
38.1
49
25.4
74
0
49
-12.7
74
0
0
LTYPE
5
38
330
5
100
AcDbSymbolTableRecord
100
AcDbLinetypeTableRecord
2
DASHDOT
70
0
3
Dash dot __ . __ . __ . __ . __ . __ . __ . __
72
65
73
4
40
25.4
49
12.7
74
0
49
-6.35
74
0
49
0
74
0
49
-6.35
74
0
0
LTYPE
5
39
330
5
100
AcDbSymbolTableRecord
100
AcDbLinetypeTableRecord
2
DASHDOT2
70
0
3
Dash dot (.5x) _._._._._._._._._._._._._._._.
72
65
73
4
40
12.7
49
6.35
74
0
49
-3.175
74
0
49
0
74
0
49
-3.175
74
0
0
LTYPE
5
3A
330
5
100
AcDbSymbolTableRecord
100
AcDbLinetypeTableRecord
2
DASHDOTX2
70
0
3
Dash dot (2x) ____  .  ____  .  ____  .  ___
72
65
73
4
40
50.8
49
25.4
74
0
49
-12.7
74
0
49
0
74
0
49
-12.7
74
0
0
LTYPE
5
3B
330
5
100
AcDbSymbolTableRecord
100
AcDbLinetypeTableRecord
2
DIVIDE
70
0
3
Divide ____ . . ____ . . ____ . . ____ . . ____
72
65
73
6
40
31.75
49
12.7
74
0
49
-6.35
74
0
49
0
74
0
49
-6.35
74
0
49
0
74
0
49
-6.35
74
0
0
LTYPE
5
3C
330
5
100
AcDbSymbolTableRecord
100
AcDbLinetypeTableRecord
2
DIVIDE2
70
0
3
Divide (.5x) __..__..__..__..__..__..__..__.._
72
65
73
6
40
15.875
49
6.35
74
0
49
-3.175
74
0
49
0
74
0
49
-3.175
74
0
49
0
74
0
49
-3.175
74
0
0
LTYPE
5
3D
330
5
100
AcDbSymbolTableRecord
100
AcDbLinetypeTableRecord
2
DIVIDEX2
70
0
3
Divide (2x) ________  .  .  ________  .  .  _
72
65
73
6
40
63.5
49
25.4
74
0
49
-12.7
74
0
49
0
74
0
49
-12.7
74
0
49
0
74
0
49
-12.7
74
0
0
LTYPE
5
3E
330
5
100
AcDbSymbolTableRecord
100
AcDbLinetypeTableRecord
2
BORDER
70
0
3
Border __ __ . __ __ . __ __ . __ __ . __ __ .
72
65
73
6
40
44.45
49
12.7
74
0
49
-6.35
74
0
49
12.7
74
0
49
-6.35
74
0
49
0
74
0
49
-6.35
74
0
0
LTYPE
5
3F
330
5
100
AcDbSymbolTableRecord
100
AcDbLinetypeTableRecord
2
BORDER2
70
0
3
Border (.5x) __.__.__.__.__.__.__.__.__.__.__.
72
65
73
6
40
22.225
49
6.35
74
0
49
-3.175
74
0
49
6.35
74
0
49
-3.175
74
0
49
0
74
0
49
-3.175
74
0
0
LTYPE
5
40
330
5
100
AcDbSymbolTableRecord
100
AcDbLinetypeTableRecord
2
BORDERX2
70
0
3
Border (2x) ____  ____  .  ____  ____  .  ___
72
65
73
6
40
88.9
49
25.4
74
0
49
-12.7
74
0
49
25.4
74
0
49
-12.7
74
0
49
0
74
0
49
-12.7
74
0
0
LTYPE
5
41
330
5
100
AcDbSymbolTableRecord
100
AcDbLinetypeTableRecord
2
CENTER
70
0
3
Center ____ _ ____ _ ____ _ ____ _ ____ _ ____
72
65
73
4
40
50.8
49
31.75
74
0
49
-6.35
74
0
49
6.35
74
0
49
-6.35
74
0
0
LTYPE
5
42
330
5
100
AcDbSymbolTableRecord
100
AcDbLinetypeTableRecord
2
CENTER2
70
0
3
Center (.5x) ___ _ ___ _ ___ _ ___ _ ___ _ ___
72
65
73
4
40
28.575
49
19.05
74
0
49
-3.175
74
0
49
3.175
74
0
49
-3.175
74
0
0
LTYPE
5
43
330
5
100
AcDbSymbolTableRecord
100
AcDbLinetypeTableRecord
2
CENTERX2
70
0
3
Center (2x) ________  __  ________  __  _____
72
65
73
4
40
101.6
49
63.5
74
0
49
-12.7
74
0
49
12.7
74
0
49
-12.7
74
0
0
ENDTAB
0
TABLE
2
LAYER
5
2
330
0
100
AcDbSymbolTable
70
1
0
LAYER
5
10
330
2
100
AcDbSymbolTableRecord
100
AcDbLayerTableRecord
2
0
70
0
62
7
6
CONTINUOUS
370
-3
390
F
0
LAYER
5
44
330
2
100
AcDbSymbolTableRecord
100
AcDbLayerTableRecord
2
PRINCIPAL
70
0
62
7
6
CONTINUOUS
370
0
390
F
0
ENDTAB
0
TABLE
2
STYLE
5
3
330
0
100
AcDbSymbolTable
70
3
0
STYLE
5
45
330
2
100
AcDbSymbolTableRecord
100
AcDbTextStyleTableRecord
2
Standard
70
0
40
0
41
1
50
0
71
0
42
1
3
txt
4

0
ENDTAB
0
TABLE
2
VIEW
5
6
330
0
100
AcDbSymbolTable
70
0
0
ENDTAB
0
TABLE
2
UCS
5
7
330
0
100
AcDbSymbolTable
70
0
0
ENDTAB
0
TABLE
2
APPID
5
9
330
0
100
AcDbSymbolTable
70
1
0
APPID
5
12
330
9
100
AcDbSymbolTableRecord
100
AcDbRegAppTableRecord
2
ACAD
70
0
0
ENDTAB
0
TABLE
2
DIMSTYLE
5
A
330
0
100
AcDbSymbolTable
70
1
100
AcDbDimStyleTable
71
1
0
DIMSTYLE
105
46
330
A
100
AcDbSymbolTableRecord
100
AcDbDimStyleTableRecord
2
Standard
70
0
40
1
41
3.302
42
1
43
0.38
44
1
45
0
46
0
47
0
48
0
140
3.5
141
0.09
142
0
143
25.4
144
1
145
0
146
1
147
1.524
148
0
71
0
72
0
73
0
74
1
75
0
76
0
77
0
78
0
79
0
170
0
171
2
172
0
173
0
174
0
175
0
176
0
177
0
178
0
179
0
271
4
272
4
273
2
274
2
275
0
276
0
277
2
278
46
279
0
280
0
281
0
282
0
283
1
284
0
285
0
286
0
288
0
289
3
340
Standard
341

371
-2
372
-2
0
ENDTAB
0
TABLE
2
BLOCK_RECORD
5
1
330
0
100
AcDbSymbolTable
70
2
0
BLOCK_RECORD
5
1F
330
1
100
AcDbSymbolTableRecord
100
AcDbBlockTableRecord
2
*Model_Space
70
0
280
1
281
0
0
BLOCK_RECORD
5
1E
330
1
100
AcDbSymbolTableRecord
100
AcDbBlockTableRecord
2
*Paper_Space
70
0
280
1
281
0
0
ENDTAB
0
ENDSEC
0
SECTION
2
BLOCKS
0
BLOCK
5
20
330
1F
100
AcDbEntity
8
0
100
AcDbBlockBegin
2
*Model_Space
70
0
10
0
20
0
30
0
3
*Model_Space
1

0
ENDBLK
5
21
330
1F
100
AcDbEntity
8
0
100
AcDbBlockEnd
0
BLOCK
5
1C
330
1B
100
AcDbEntity
8
0
100
AcDbBlockBegin
2
*Paper_Space
70
0
10
0
20
0
30
0
3
*Paper_Space
1

0
ENDBLK
5
1D
330
1F
100
AcDbEntity
8
0
100
AcDbBlockEnd
0
ENDSEC
0
SECTION
2
ENTITIES
0
ARC
5
47
100
AcDbEntity
8
PRINCIPAL
6
CONTINUOUS
62
7
370
0
100
AcDbCircle
10
0
20
-3.5
40
4.2
100
AcDbArc
50
292.392789522
51
247.607413911
0
LINE
5
48
100
AcDbEntity
8
PRINCIPAL
6
CONTINUOUS
62
7
370
0
100
AcDbLine
10
1.600006894
20
-10.8500159296
11
1.600006894
21
-7.3832947273
0
ARC
5
49
100
AcDbEntity
8
PRINCIPAL
6
CONTINUOUS
62
7
370
0
100
AcDbCircle
10
6.894e-06
20
-10.8500159296
40
1.6
100
AcDbArc
50
180
51
0
0
LINE
5
4A
100
AcDbEntity
8
PRINCIPAL
6
CONTINUOUS
62
7
370
0
100
AcDbLine
10
-1.599993106
20
-10.8500159296
11
-1.599993106
21
-7.3833004082
0
ARC
5
4B
100
AcDbEntity
8
PRINCIPAL
6
CONTINUOUS
62
7
370
0
100
AcDbCircle
10
0
20
-3.5
40
7
100
AcDbArc
50
334.055520228
51
0.7683763764
0
ARC
5
4C
100
AcDbEntity
8
PRINCIPAL
6
CONTINUOUS
62
7
370
0
100
AcDbCircle
10
7.9992806235
20
-3.3927176345
40
1
100
AcDbArc
50
118
51
180.768376376
0
LINE
5
4D
100
AcDbEntity
8
PRINCIPAL
6
CONTINUOUS
62
7
370
0
100
AcDbLine
10
7.5298090607
20
-2.5097700416
11
12.0298564401
21
-0.1170524071
0
ARC
5
4E
100
AcDbEntity
8
PRINCIPAL
6
CONTINUOUS
62
7
370
0
100
AcDbCircle
10
12.4993280028
20
-1
40
1
100
AcDbArc
50
90
51
118
0
LINE
5
4F
100
AcDbEntity
8
PRINCIPAL
6
CONTINUOUS
62
7
370
0
100
AcDbLine
10
23
20
0
11
12.4993280028
21
0
0
ARC
5
50
100
AcDbEntity
8
PRINCIPAL
6
CONTINUOUS
62
7
370
0
100
AcDbCircle
10
23
20
1
40
1
100
AcDbArc
50
270
51
0
0
LINE
5
51
100
AcDbEntity
8
PRINCIPAL
6
CONTINUOUS
62
7
370
0
100
AcDbLine
10
24
20
3
11
24
21
1
0
ARC
5
52
100
AcDbEntity
8
PRINCIPAL
6
CONTINUOUS
62
7
370
0
100
AcDbCircle
10
25
20
3
40
1
100
AcDbArc
50
90
51
180
0
LINE
5
53
100
AcDbEntity
8
PRINCIPAL
6
CONTINUOUS
62
7
370
0
100
AcDbLine
10
32
20
4
11
25
21
4
0
ARC
5
54
100
AcDbEntity
8
PRINCIPAL
6
CONTINUOUS
62
7
370
0
100
AcDbCircle
10
32
20
3
40
1
100
AcDbArc
50
0
51
90
0
LINE
5
55
100
AcDbEntity
8
PRINCIPAL
6
CONTINUOUS
62
7
370
0
100
AcDbLine
10
33
20
2
11
33
21
3
0
ARC
5
56
100
AcDbEntity
8
PRINCIPAL
6
CONTINUOUS
62
7
370
0
100
AcDbCircle
10
32
20
2
40
1
100
AcDbArc
50
270
51
0
0
LINE
5
57
100
AcDbEntity
8
PRINCIPAL
6
CONTINUOUS
62
7
370
0
100
AcDbLine
10
31
20
1
11
32
21
1
0
ARC
5
58
100
AcDbEntity
8
PRINCIPAL
6
CONTINUOUS
62
7
370
0
100
AcDbCircle
10
31
20
0
40
1
100
AcDbArc
50
90
51
180
0
LINE
5
59
100
AcDbEntity
8
PRINCIPAL
6
CONTINUOUS
62
7
370
0
100
AcDbLine
10
30
20
-7
11
30
21
0
0
ARC
5
5A
100
AcDbEntity
8
PRINCIPAL
6
CONTINUOUS
62
7
370
0
100
AcDbCircle
10
29
20
-7
40
1
100
AcDbArc
50
270
51
0
0
LINE
5
5B
100
AcDbEntity
8
PRINCIPAL
6
CONTINUOUS
62
7
370
0
100
AcDbLine
10
7.193747285
20
-8
11
29
21
-8
0
ARC
5
5C
100
AcDbEntity
8
PRINCIPAL
6
CONTINUOUS
62
7
370
0
100
AcDbCircle
10
7.193747285
20
-7
40
1
100
AcDbArc
50
154.055520228
51
270
0
LINE
5
5D
100
AcDbEntity
8
PRINCIPAL
6
CONTINUOUS
62
7
370
0
100
AcDbLine
10
12.2320737346
20
3.7649994524
11
12.2235054041
21
7.2302583215
0
ARC
5
5E
100
AcDbEntity
8
PRINCIPAL
6
CONTINUOUS
62
7
370
0
100
AcDbCircle
10
11.2320767916
20
3.762526822
40
1
100
AcDbArc
50
298
51
0.1416714287
0
LINE
5
5F
100
AcDbEntity
8
PRINCIPAL
6
CONTINUOUS
62
7
370
0
100
AcDbLine
10
11.7015483544
20
2.8795792291
11
6.9261930744
21
0.3404777872
0
ARC
5
60
100
AcDbEntity
8
PRINCIPAL
6
CONTINUOUS
62
7
370
0
100
AcDbCircle
10
6.4567215116
20
1.2234253801
40
1
100
AcDbArc
50
216.18739851
51
298
0
ARC
5
61
100
AcDbEntity
8
PRINCIPAL
6
CONTINUOUS
62
7
370
0
100
AcDbCircle
10
0
20
-3.5
40
7
100
AcDbArc
50
36.1873985102
51
73.1200079081
0
ARC
5
62
100
AcDbEntity
8
PRINCIPAL
6
CONTINUOUS
62
7
370
0
100
AcDbCircle
10
2.322944423
20
4.1553203204
40
1
100
AcDbArc
50
116.720874311
51
253.120007908
0
ARC
5
63
100
AcDbEntity
8
PRINCIPAL
6
CONTINUOUS
62
7
370
0
100
AcDbCircle
10
-0.0152067
20
8.8
40
4.2
100
AcDbArc
50
296.720874311
51
351.928478768
0
LINE
5
64
100
AcDbEntity
8
PRINCIPAL
6
CONTINUOUS
62
7
370
0
100
AcDbLine
10
11.2210358307
20
8.2277826342
11
4.1431862945
21
8.210281675
0
ARC
5
65
100
AcDbEntity
8
PRINCIPAL
6
CONTINUOUS
62
7
370
0
100
AcDbCircle
10
11.2235084611
20
7.2277856911
40
1
100
AcDbArc
50
0.1416714287
51
90.1416714287
0
ARC
5
66
100
AcDbEntity
8
PRINCIPAL
6
CONTINUOUS
62
7
370
0
100
AcDbCircle
10
0
20
-3.5
40
7
100
AcDbArc
50
107.021663521
51
143.81260149
0
ARC
5
67
100
AcDbEntity
8
PRINCIPAL
6
CONTINUOUS
62
7
370
0
100
AcDbCircle
10
-6.4567215116
20
1.2234253801
40
1
100
AcDbArc
50
242
51
323.81260149
0
LINE
5
68
100
AcDbEntity
8
PRINCIPAL
6
CONTINUOUS
62
7
370
0
100
AcDbLine
10
-6.9261930744
20
0.3404777872
11
-11.7194715628
21
2.8891091681
0
ARC
5
69
100
AcDbEntity
8
PRINCIPAL
6
CONTINUOUS
62
7
370
0
100
AcDbCircle
10
-11.25
20
3.772056761
40
1
100
AcDbArc
50
180
51
242
0
LINE
5
6A
100
AcDbEntity
8
PRINCIPAL
6
CONTINUOUS
62
7
370
0
100
AcDbLine
10
-12.25
20
7.2000013089
11
-12.25
21
3.772056761
0
ARC
5
6B
100
AcDbEntity
8
PRINCIPAL
6
CONTINUOUS
62
7
370
0
100
AcDbCircle
10
-11.25
20
7.2000013089
40
1
100
AcDbArc
50
90
51
180
0
LINE
5
6C
100
AcDbEntity
8
PRINCIPAL
6
CONTINUOUS
62
7
370
0
100
AcDbLine
10
-4.1721288271
20
8.2000013089
11
-11.25
21
8.2000013089
0
ARC
5
6D
100
AcDbEntity
8
PRINCIPAL
6
CONTINUOUS
62
7
370
0
100
AcDbCircle
10
-0.0152067
20
8.8
40
4.2
100
AcDbArc
50
188.213192661
51
243.420797118
0
ARC
5
6E
100
AcDbEntity
8
PRINCIPAL
6
CONTINUOUS
62
7
370
0
100
AcDbCircle
10
-2.3418660993
20
4.1495531355
40
1
100
AcDbArc
50
287.021663521
51
63.4207971179
0
LINE
5
6F
100
AcDbEntity
8
PRINCIPAL
6
CONTINUOUS
62
7
370
0
100
AcDbLine
10
-23
20
0
11
-12.4993280028
21
0
0
ARC
5
70
100
AcDbEntity
8
PRINCIPAL
6
CONTINUOUS
62
7
370
0
100
AcDbCircle
10
-12.4993280028
20
-1
40
1
100
AcDbArc
50
62
51
90
0
LINE
5
71
100
AcDbEntity
8
PRINCIPAL
6
CONTINUOUS
62
7
370
0
100
AcDbLine
10
-12.0298564401
20
-0.1170524071
11
-7.5298090607
21
-2.5097700416
0
ARC
5
72
100
AcDbEntity
8
PRINCIPAL
6
CONTINUOUS
62
7
370
0
100
AcDbCircle
10
-7.9992806235
20
-3.3927176345
40
1
100
AcDbArc
50
359.231623624
51
62
0
ARC
5
73
100
AcDbEntity
8
PRINCIPAL
6
CONTINUOUS
62
7
370
0
100
AcDbCircle
10
0
20
-3.5
40
7
100
AcDbArc
50
179.231623624
51
205.944479772
0
ARC
5
74
100
AcDbEntity
8
PRINCIPAL
6
CONTINUOUS
62
7
370
0
100
AcDbCircle
10
-7.193747285
20
-7
40
1
100
AcDbArc
50
270
51
25.9444797723
0
LINE
5
75
100
AcDbEntity
8
PRINCIPAL
6
CONTINUOUS
62
7
370
0
100
AcDbLine
10
-7.193747285
20
-8
11
-29
21
-8
0
ARC
5
76
100
AcDbEntity
8
PRINCIPAL
6
CONTINUOUS
62
7
370
0
100
AcDbCircle
10
-29
20
-7
40
1
100
AcDbArc
50
180
51
270
0
LINE
5
77
100
AcDbEntity
8
PRINCIPAL
6
CONTINUOUS
62
7
370
0
100
AcDbLine
10
-30
20
-7
11
-30
21
0
0
ARC
5
78
100
AcDbEntity
8
PRINCIPAL
6
CONTINUOUS
62
7
370
0
100
AcDbCircle
10
-31
20
0
40
1
100
AcDbArc
50
0
51
90
0
LINE
5
79
100
AcDbEntity
8
PRINCIPAL
6
CONTINUOUS
62
7
370
0
100
AcDbLine
10
-31
20
1
11
-32
21
1
0
ARC
5
7A
100
AcDbEntity
8
PRINCIPAL
6
CONTINUOUS
62
7
370
0
100
AcDbCircle
10
-32
20
2
40
1
100
AcDbArc
50
180
51
270
0
LINE
5
7B
100
AcDbEntity
8
PRINCIPAL
6
CONTINUOUS
62
7
370
0
100
AcDbLine
10
-33
20
2
11
-33
21
3
0
ARC
5
7C
100
AcDbEntity
8
PRINCIPAL
6
CONTINUOUS
62
7
370
0
100
AcDbCircle
10
-32
20
3
40
1
100
AcDbArc
50
90
51
180
0
LINE
5
7D
100
AcDbEntity
8
PRINCIPAL
6
CONTINUOUS
62
7
370
0
100
AcDbLine
10
-32
20
4
11
-25
21
4
0
ARC
5
7E
100
AcDbEntity
8
PRINCIPAL
6
CONTINUOUS
62
7
370
0
100
AcDbCircle
10
-25
20
3
40
1
100
AcDbArc
50
0
51
90
0
LINE
5
7F
100
AcDbEntity
8
PRINCIPAL
6
CONTINUOUS
62
7
370
0
100
AcDbLine
10
-24
20
3
11
-24
21
1
0
ARC
5
80
100
AcDbEntity
8
PRINCIPAL
6
CONTINUOUS
62
7
370
0
100
AcDbCircle
10
-23
20
1
40
1
100
AcDbArc
50
180
51
270
0
LINE
5
81
100
AcDbEntity
8
PRINCIPAL
6
CONTINUOUS
62
7
370
0
100
AcDbLine
10
28
20
-32
11
23
21
-32
0
ARC
5
82
100
AcDbEntity
8
PRINCIPAL
6
CONTINUOUS
62
7
370
0
100
AcDbCircle
10
29
20
-31.9987809277
40
1.00000074307
100
AcDbArc
50
180.069847665
51
270.069805139
0
LINE
5
83
100
AcDbEntity
8
PRINCIPAL
6
CONTINUOUS
62
7
370
0
100
AcDbLine
10
33.3345969461
20
-32.9935006998
11
29.0012183292
21
-32.9987801855
0
LINE
5
84
100
AcDbEntity
8
PRINCIPAL
6
CONTINUOUS
62
7
370
0
100
AcDbLine
10
33.3345969461
20
-32.9935006998
11
33.3345969461
21
-28.8447186119
0
LINE
5
85
100
AcDbEntity
8
PRINCIPAL
6
CONTINUOUS
62
7
370
0
100
AcDbLine
10
33.3345969461
20
-28.8447186119
11
36.634597278
21
-28.8447186119
0
LINE
5
86
100
AcDbEntity
8
PRINCIPAL
6
CONTINUOUS
62
7
370
0
100
AcDbLine
10
36.634597278
20
-28.8447186119
11
36.634597278
21
-32.9947190299
0
LINE
5
87
100
AcDbEntity
8
PRINCIPAL
6
CONTINUOUS
62
7
370
0
100
AcDbLine
10
36.634597278
20
-32.9947190299
11
36.9848000001
21
-32.9947190299
0
ARC
5
88
100
AcDbEntity
8
PRINCIPAL
6
CONTINUOUS
62
7
370
0
100
AcDbCircle
10
36.9848000001
20
-30.9947190299
40
1.99999999999
100
AcDbArc
50
270
51
359.99985002
0
LINE
5
89
100
AcDbEntity
8
PRINCIPAL
6
CONTINUOUS
62
7
370
0
100
AcDbLine
10
38.9847999999
20
-30.9947242652
11
38.9849
21
7.20757
0
LINE
5
8A
100
AcDbEntity
8
PRINCIPAL
6
CONTINUOUS
62
7
370
0
100
AcDbLine
10
38.9849
20
7.20757
11
34.784737182
21
7.2075692831
0
LINE
5
8B
100
AcDbEntity
8
PRINCIPAL
6
CONTINUOUS
62
7
370
0
100
AcDbLine
10
34.784737182
20
7.2075692831
11
34.784737182
21
10.4075696051
0
LINE
5
8C
100
AcDbEntity
8
PRINCIPAL
6
CONTINUOUS
62
7
370
0
100
AcDbLine
10
34.784737182
20
10.4075696051
11
38.9849
21
10.4075696051
0
LINE
5
8D
100
AcDbEntity
8
PRINCIPAL
6
CONTINUOUS
62
7
370
0
100
AcDbLine
10
38.9849
20
10.4075696051
11
38.9893845693
21
11.9943476078
0
ARC
5
8E
100
AcDbEntity
8
PRINCIPAL
6
CONTINUOUS
62
7
370
0
100
AcDbCircle
10
36.9893950357
20
12
40
2
100
AcDbArc
50
359.838070475
51
90
0
LINE
5
8F
100
AcDbEntity
8
PRINCIPAL
6
CONTINUOUS
62
7
370
0
100
AcDbLine
10
36.9893950357
20
14
11
34
21
14
0
ARC
5
90
100
AcDbEntity
8
PRINCIPAL
6
CONTINUOUS
62
7
370
0
100
AcDbCircle
10
34
20
16
40
2
100
AcDbArc
50
180
51
270
0
LINE
5
91
100
AcDbEntity
8
PRINCIPAL
6
CONTINUOUS
62
7
370
0
100
AcDbLine
10
32
20
35
11
32
21
16
0
ARC
5
92
100
AcDbEntity
8
PRINCIPAL
6
CONTINUOUS
62
7
370
0
100
AcDbCircle
10
31
20
35
40
1
100
AcDbArc
50
0
51
90
0
LINE
5
93
100
AcDbEntity
8
PRINCIPAL
6
CONTINUOUS
62
7
370
0
100
AcDbLine
10
31
20
36
11
30.1
21
36
0
ARC
5
94
100
AcDbEntity
8
PRINCIPAL
6
CONTINUOUS
62
7
370
0
100
AcDbCircle
10
30.1
20
35
40
1
100
AcDbArc
50
90
51
180
0
LINE
5
95
100
AcDbEntity
8
PRINCIPAL
6
CONTINUOUS
62
7
370
0
100
AcDbLine
10
29.1
20
31.5
11
29.1
21
35
0
ARC
5
96
100
AcDbEntity
8
PRINCIPAL
6
CONTINUOUS
62
7
370
0
100
AcDbCircle
10
27.5
20
31.5
40
1.6
100
AcDbArc
50
180
51
0
0
LINE
5
97
100
AcDbEntity
8
PRINCIPAL
6
CONTINUOUS
62
7
370
0
100
AcDbLine
10
25.9
20
31.5
11
25.9
21
35
0
ARC
5
98
100
AcDbEntity
8
PRINCIPAL
6
CONTINUOUS
62
7
370
0
100
AcDbCircle
10
24.9
20
35
40
1
100
AcDbArc
50
0
51
90
0
LINE
5
99
100
AcDbEntity
8
PRINCIPAL
6
CONTINUOUS
62
7
370
0
100
AcDbLine
10
24.9
20
36
11
24
21
36
0
ARC
5
9A
100
AcDbEntity
8
PRINCIPAL
6
CONTINUOUS
62
7
370
0
100
AcDbCircle
10
24
20
35
40
1
100
AcDbArc
50
90
51
180
0
LINE
5
9B
100
AcDbEntity
8
PRINCIPAL
6
CONTINUOUS
62
7
370
0
100
AcDbLine
10
23
20
35
11
23
21
33.9947190299
0
ARC
5
9C
100
AcDbEntity
8
PRINCIPAL
6
CONTINUOUS
62
7
370
0
100
AcDbCircle
10
22
20
33.9947190299
40
1
100
AcDbArc
50
270
51
0
0
LINE
5
9D
100
AcDbEntity
8
PRINCIPAL
6
CONTINUOUS
62
7
370
0
100
AcDbLine
10
12.9847948961
20
32.9947190299
11
22
21
32.9947190299
0
ARC
5
9E
100
AcDbEntity
8
PRINCIPAL
6
CONTINUOUS
62
7
370
0
100
AcDbCircle
10
12.9847948961
20
31.9947190299
40
1
100
AcDbArc
50
90
51
179.697248151
0
LINE
5
9F
100
AcDbEntity
8
PRINCIPAL
6
CONTINUOUS
62
7
370
0
100
AcDbLine
10
6.9847804316
20
32.0000030219
11
11.9848088565
21
32.0000030219
0
ARC
5
A0
100
AcDbEntity
8
PRINCIPAL
6
CONTINUOUS
62
7
370
0
100
AcDbCircle
10
5.984794392
20
31.9947190299
40
1
100
AcDbArc
50
0.3027518494
51
90
0
LINE
5
A1
100
AcDbEntity
8
PRINCIPAL
6
CONTINUOUS
62
7
370
0
100
AcDbLine
10
-6.0152066149
20
32.9947190299
11
5.984794392
21
32.9947190299
0
ARC
5
A2
100
AcDbEntity
8
PRINCIPAL
6
CONTINUOUS
62
7
370
0
100
AcDbCircle
10
-6.0152066149
20
31.9947190299
40
1
100
AcDbArc
50
90
51
179.697248151
0
LINE
5
A3
100
AcDbEntity
8
PRINCIPAL
6
CONTINUOUS
62
7
370
0
100
AcDbLine
10
-12.0152210793
20
32.0000030219
11
-7.0151926545
21
32.0000030219
0
ARC
5
A4
100
AcDbEntity
8
PRINCIPAL
6
CONTINUOUS
62
7
370
0
100
AcDbCircle
10
-13.0152071189
20
31.9947190299
40
1
100
AcDbArc
50
0.3027518494
51
90
0
LINE
5
A5
100
AcDbEntity
8
PRINCIPAL
6
CONTINUOUS
62
7
370
0
100
AcDbLine
10
-22
20
32.9947190299
11
-13.0152071189
21
32.9947190299
0
ARC
5
A6
100
AcDbEntity
8
PRINCIPAL
6
CONTINUOUS
62
7
370
0
100
AcDbCircle
10
-22
20
33.9947190299
40
1
100
AcDbArc
50
180
51
270
0
LINE
5
A7
100
AcDbEntity
8
PRINCIPAL
6
CONTINUOUS
62
7
370
0
100
AcDbLine
10
-23
20
35
11
-23
21
33.9947190299
0
ARC
5
A8
100
AcDbEntity
8
PRINCIPAL
6
CONTINUOUS
62
7
370
0
100
AcDbCircle
10
-24
20
35
40
1
100
AcDbArc
50
0
51
90
0
LINE
5
A9
100
AcDbEntity
8
PRINCIPAL
6
CONTINUOUS
62
7
370
0
100
AcDbLine
10
-24.9
20
36
11
-24
21
36
0
ARC
5
AA
100
AcDbEntity
8
PRINCIPAL
6
CONTINUOUS
62
7
370
0
100
AcDbCircle
10
-24.9
20
35
40
1
100
AcDbArc
50
90
51
180
0
LINE
5
AB
100
AcDbEntity
8
PRINCIPAL
6
CONTINUOUS
62
7
370
0
100
AcDbLine
10
-25.9
20
31.5
11
-25.9
21
35
0
ARC
5
AC
100
AcDbEntity
8
PRINCIPAL
6
CONTINUOUS
62
7
370
0
100
AcDbCircle
10
-27.5
20
31.5
40
1.6
100
AcDbArc
50
180
51
0
0
LINE
5
AD
100
AcDbEntity
8
PRINCIPAL
6
CONTINUOUS
62
7
370
0
100
AcDbLine
10
-29.1
20
31.5
11
-29.1
21
35
0
ARC
5
AE
100
AcDbEntity
8
PRINCIPAL
6
CONTINUOUS
62
7
370
0
100
AcDbCircle
10
-30.1
20
35
40
1
100
AcDbArc
50
0
51
90
0
LINE
5
AF
100
AcDbEntity
8
PRINCIPAL
6
CONTINUOUS
62
7
370
0
100
AcDbLine
10
-31
20
36
11
-30.1
21
36
0
ARC
5
B0
100
AcDbEntity
8
PRINCIPAL
6
CONTINUOUS
62
7
370
0
100
AcDbCircle
10
-31
20
35
40
1
100
AcDbArc
50
90
51
180
0
LINE
5
B1
100
AcDbEntity
8
PRINCIPAL
6
CONTINUOUS
62
7
370
0
100
AcDbLine
10
-32
20
35
11
-32
21
16
0
ARC
5
B2
100
AcDbEntity
8
PRINCIPAL
6
CONTINUOUS
62
7
370
0
100
AcDbCircle
10
-34
20
16
40
2
100
AcDbArc
50
270
51
0
0
LINE
5
B3
100
AcDbEntity
8
PRINCIPAL
6
CONTINUOUS
62
7
370
0
100
AcDbLine
10
-37.0106018307
20
14
11
-34
21
14
0
ARC
5
B4
100
AcDbEntity
8
PRINCIPAL
6
CONTINUOUS
62
7
370
0
100
AcDbCircle
10
-37.0106018307
20
12
40
2
100
AcDbArc
50
90
51
179.838353668
0
LINE
5
B5
100
AcDbEntity
8
PRINCIPAL
6
CONTINUOUS
62
7
370
0
100
AcDbLine
10
-39.0151
20
10.4075696051
11
-39.0105914077
21
12.005642507
0
LINE
5
B6
100
AcDbEntity
8
PRINCIPAL
6
CONTINUOUS
62
7
370
0
100
AcDbLine
10
-39.0151
20
10.4075696051
11
-34.8152697342
21
10.4075696051
0
LINE
5
B7
100
AcDbEntity
8
PRINCIPAL
6
CONTINUOUS
62
7
370
0
100
AcDbLine
10
-34.8152697342
20
10.4075696051
11
-34.8152697342
21
7.2075692831
0
LINE
5
B8
100
AcDbEntity
8
PRINCIPAL
6
CONTINUOUS
62
7
370
0
100
AcDbLine
10
-34.8152697342
20
7.2075692831
11
-39.0151
21
7.20757
0
LINE
5
B9
100
AcDbEntity
8
PRINCIPAL
6
CONTINUOUS
62
7
370
0
100
AcDbLine
10
-39.0151
20
7.20757
11
-39.0152
21
-30.9947137946
0
ARC
5
BA
100
AcDbEntity
8
PRINCIPAL
6
CONTINUOUS
62
7
370
0
100
AcDbCircle
10
-37.0152000001
20
-30.9947190299
40
1.99999999999
100
AcDbArc
50
179.99985002
51
270
0
LINE
5
BB
100
AcDbEntity
8
PRINCIPAL
6
CONTINUOUS
62
7
370
0
100
AcDbLine
10
-37.0152000001
20
-32.9947190299
11
-36.6653958747
21
-32.9947190299
0
LINE
5
BC
100
AcDbEntity
8
PRINCIPAL
6
CONTINUOUS
62
7
370
0
100
AcDbLine
10
-36.6653958747
20
-32.9947190299
11
-36.6653958747
21
-28.8447186119
0
LINE
5
BD
100
AcDbEntity
8
PRINCIPAL
6
CONTINUOUS
62
7
370
0
100
AcDbLine
10
-36.6653958747
20
-28.8447186119
11
-33.3654055422
21
-28.8447186119
0
LINE
5
BE
100
AcDbEntity
8
PRINCIPAL
6
CONTINUOUS
62
7
370
0
100
AcDbLine
10
-33.3654055422
20
-28.8447186119
11
-33.3654055422
21
-32.9935092981
0
LINE
5
BF
100
AcDbEntity
8
PRINCIPAL
6
CONTINUOUS
62
7
370
0
100
AcDbLine
10
-29.0012097309
20
-32.9987888047
11
-33.3654055422
21
-32.9935092981
0
ARC
5
C0
100
AcDbEntity
8
PRINCIPAL
6
CONTINUOUS
62
7
370
0
100
AcDbCircle
10
-29
20
-31.9987895364
40
1.00000073261
100
AcDbArc
50
269.930687505
51
359.93064558
0
LINE
5
C1
100
AcDbEntity
8
PRINCIPAL
6
CONTINUOUS
62
7
370
0
100
AcDbLine
10
-28
20
-32
11
-23
21
-32
0
ARC
5
C2
100
AcDbEntity
8
PRINCIPAL
6
CONTINUOUS
62
7
370
0
100
AcDbCircle
10
-22
20
-32
40
1
100
AcDbArc
50
180
51
270
0
LINE
5
C3
100
AcDbEntity
8
PRINCIPAL
6
CONTINUOUS
62
7
370
0
100
AcDbLine
10
-22
20
-33
11
-10
21
-33
0
ARC
5
C4
100
AcDbEntity
8
PRINCIPAL
6
CONTINUOUS
62
7
370
0
100
AcDbCircle
10
-10
20
-32
40
1
100
AcDbArc
50
270
51
0
0
LINE
5
C5
100
AcDbEntity
8
PRINCIPAL
6
CONTINUOUS
62
7
370
0
100
AcDbLine
10
-9
20
-32
11
-4
21
-32
0
ARC
5
C6
100
AcDbEntity
8
PRINCIPAL
6
CONTINUOUS
62
7
370
0
100
AcDbCircle
10
-3
20
-32
40
1
100
AcDbArc
50
180
51
270
0
LINE
5
C7
100
AcDbEntity
8
PRINCIPAL
6
CONTINUOUS
62
7
370
0
100
AcDbLine
10
3
20
-33
11
-3
21
-33
0
ARC
5
C8
100
AcDbEntity
8
PRINCIPAL
6
CONTINUOUS
62
7
370
0
100
AcDbCircle
10
3
20
-32
40
1
100
AcDbArc
50
270
51
0
0
LINE
5
C9
100
AcDbEntity
8
PRINCIPAL
6
CONTINUOUS
62
7
370
0
100
AcDbLine
10
9
20
-32
11
4
21
-32
0
ARC
5
CA
100
AcDbEntity
8
PRINCIPAL
6
CONTINUOUS
62
7
370
0
100
AcDbCircle
10
10
20
-32
40
1
100
AcDbArc
50
180
51
270
0
LINE
5
CB
100
AcDbEntity
8
PRINCIPAL
6
CONTINUOUS
62
7
370
0
100
AcDbLine
10
22
20
-33
11
10
21
-33
0
ARC
5
CC
100
AcDbEntity
8
PRINCIPAL
6
CONTINUOUS
62
7
370
0
100
AcDbCircle
10
22
20
-32
40
1
100
AcDbArc
50
270
51
0
0
ARC
5
CD
100
AcDbEntity
8
PRINCIPAL
6
CONTINUOUS
62
7
370
0
100
AcDbCircle
10
19
20
26
40
1
100
AcDbArc
50
90
51
180
0
LINE
5
CE
100
AcDbEntity
8
PRINCIPAL
6
CONTINUOUS
62
7
370
0
100
AcDbLine
10
28
20
27
11
19
21
27
0
ARC
5
CF
100
AcDbEntity
8
PRINCIPAL
6
CONTINUOUS
62
7
370
0
100
AcDbCircle
10
28
20
26
40
1
100
AcDbArc
50
0
51
90
0
LINE
5
D0
100
AcDbEntity
8
PRINCIPAL
6
CONTINUOUS
62
7
370
0
100
AcDbLine
10
29
20
14
11
29
21
26
0
ARC
5
D1
100
AcDbEntity
8
PRINCIPAL
6
CONTINUOUS
62
7
370
0
100
AcDbCircle
10
28
20
14
40
1
100
AcDbArc
50
270
51
0
0
LINE
5
D2
100
AcDbEntity
8
PRINCIPAL
6
CONTINUOUS
62
7
370
0
100
AcDbLine
10
19
20
13
11
28
21
13
0
ARC
5
D3
100
AcDbEntity
8
PRINCIPAL
6
CONTINUOUS
62
7
370
0
100
AcDbCircle
10
19
20
14
40
1
100
AcDbArc
50
180
51
270
0
LINE
5
D4
100
AcDbEntity
8
PRINCIPAL
6
CONTINUOUS
62
7
370
0
100
AcDbLine
10
18
20
26
11
18
21
14
0
ARC
5
D5
100
AcDbEntity
8
PRINCIPAL
6
CONTINUOUS
62
7
370
0
100
AcDbCircle
10
-19
20
26
40
1
100
AcDbArc
50
0
51
90
0
LINE
5
D6
100
AcDbEntity
8
PRINCIPAL
6
CONTINUOUS
62
7
370
0
100
AcDbLine
10
-18
20
26
11
-18
21
14
0
ARC
5
D7
100
AcDbEntity
8
PRINCIPAL
6
CONTINUOUS
62
7
370
0
100
AcDbCircle
10
-19
20
14
40
1
100
AcDbArc
50
270
51
0
0
LINE
5
D8
100
AcDbEntity
8
PRINCIPAL
6
CONTINUOUS
62
7
370
0
100
AcDbLine
10
-19
20
13
11
-28
21
13
0
ARC
5
D9
100
AcDbEntity
8
PRINCIPAL
6
CONTINUOUS
62
7
370
0
100
AcDbCircle
10
-28
20
14
40
1
100
AcDbArc
50
180
51
270
0
LINE
5
DA
100
AcDbEntity
8
PRINCIPAL
6
CONTINUOUS
62
7
370
0
100
AcDbLine
10
-29
20
14
11
-29
21
26
0
ARC
5
DB
100
AcDbEntity
8
PRINCIPAL
6
CONTINUOUS
62
7
370
0
100
AcDbCircle
10
-28
20
26
40
1
100
AcDbArc
50
90
51
180
0
LINE
5
DC
100
AcDbEntity
8
PRINCIPAL
6
CONTINUOUS
62
7
370
0
100
AcDbLine
10
-28
20
27
11
-19
21
27
0
CIRCLE
5
DD
100
AcDbEntity
8
PRINCIPAL
6
CONTINUOUS
62
7
370
0
100
AcDbCircle
10
29
20
8.80757
40
1.6
0
CIRCLE
5
DE
100
AcDbEntity
8
PRINCIPAL
6
CONTINUOUS
62
7
370
0
100
AcDbCircle
10
-29
20
8.80757
40
1.6
0
CIRCLE
5
DF
100
AcDbEntity
8
PRINCIPAL
6
CONTINUOUS
62
7
370
0
100
AcDbCircle
10
-0.0152067
20
8.8
40
1.6
0
LINE
5
E0
100
AcDbEntity
8
PRINCIPAL
6
CONTINUOUS
62
7
370
0
100
AcDbLine
10
-30.5999807645
20
-17.8660276709
11
-30.5999807645
21
-27.1339768633
0
ARC
5
E1
100
AcDbEntity
8
PRINCIPAL
6
CONTINUOUS
62
7
370
0
100
AcDbCircle
10
-31.0999807645
20
-17.8660276709
40
0.5
100
AcDbArc
50
0
51
59.9999999991
0
ARC
5
E2
100
AcDbEntity
8
PRINCIPAL
6
CONTINUOUS
62
7
370
0
100
AcDbCircle
10
-30.5999807645
20
-17.0000022671
40
0.500000000789
100
AcDbArc
50
30.0001499081
51
239.999999999
0
ARC
5
E3
100
AcDbEntity
8
PRINCIPAL
6
CONTINUOUS
62
7
370
0
100
AcDbCircle
10
-29.7339566689
20
-16.5000000013
40
0.499999999208
100
AcDbArc
50
210.000149908
51
270
0
LINE
5
E4
100
AcDbEntity
8
PRINCIPAL
6
CONTINUOUS
62
7
370
0
100
AcDbLine
10
-2.3660048594
20
-17
11
-29.7339566689
21
-17
0
ARC
5
E5
100
AcDbEntity
8
PRINCIPAL
6
CONTINUOUS
62
7
370
0
100
AcDbCircle
10
-2.3660048594
20
-16.5
40
0.499999999997
100
AcDbArc
50
270
51
329.999850009
0
ARC
5
E6
100
AcDbEntity
8
PRINCIPAL
6
CONTINUOUS
62
7
370
0
100
AcDbCircle
10
-1.4999807645
20
-17.0000022671
40
0.5
100
AcDbArc
50
300.000000001
51
149.999850009
0
ARC
5
E7
100
AcDbEntity
8
PRINCIPAL
6
CONTINUOUS
62
7
370
0
100
AcDbCircle
10
-0.9999807645
20
-17.8660276709
40
0.5
100
AcDbArc
50
120.000000001
51
180
0
LINE
5
E8
100
AcDbEntity
8
PRINCIPAL
6
CONTINUOUS
62
7
370
0
100
AcDbLine
10
-1.4999807645
20
-27.1339768633
11
-1.4999807645
21
-17.8660276709
0
ARC
5
E9
100
AcDbEntity
8
PRINCIPAL
6
CONTINUOUS
62
7
370
0
100
AcDbCircle
10
-0.9999807645
20
-27.1339768633
40
0.5
100
AcDbArc
50
180
51
239.999999999
0
ARC
5
EA
100
AcDbEntity
8
PRINCIPAL
6
CONTINUOUS
62
7
370
0
100
AcDbCircle
10
-1.4999807645
20
-28.0000022671
40
0.5
100
AcDbArc
50
210.000000002
51
59.9999999989
0
ARC
5
EB
100
AcDbEntity
8
PRINCIPAL
6
CONTINUOUS
62
7
370
0
100
AcDbCircle
10
-2.3660061683
20
-28.5000022671
40
0.5
100
AcDbArc
50
30.0000000018
51
90
0
LINE
5
EC
100
AcDbEntity
8
PRINCIPAL
6
CONTINUOUS
62
7
370
0
100
AcDbLine
10
-29.7339553607
20
-28.0000022671
11
-2.3660061683
21
-28.0000022671
0
ARC
5
ED
100
AcDbEntity
8
PRINCIPAL
6
CONTINUOUS
62
7
370
0
100
AcDbCircle
10
-29.7339553607
20
-28.5000022671
40
0.5
100
AcDbArc
50
90
51
149.999999999
0
ARC
5
EE
100
AcDbEntity
8
PRINCIPAL
6
CONTINUOUS
62
7
370
0
100
AcDbCircle
10
-30.5999807645
20
-28.0000022671
40
0.5
100
AcDbArc
50
120.000000001
51
329.999999999
0
ARC
5
EF
100
AcDbEntity
8
PRINCIPAL
6
CONTINUOUS
62
7
370
0
100
AcDbCircle
10
-31.0999807645
20
-27.1339768633
40
0.5
100
AcDbArc
50
300.000000001
51
0
0
LINE
5
F0
100
AcDbEntity
8
PRINCIPAL
6
CONTINUOUS
62
7
370
0
100
AcDbLine
10
1.5000082388
20
-17.8660276709
11
1.5000082388
21
-27.1339768633
0
ARC
5
F1
100
AcDbEntity
8
PRINCIPAL
6
CONTINUOUS
62
7
370
0
100
AcDbCircle
10
1.0000082388
20
-17.8660276709
40
0.5
100
AcDbArc
50
0
51
59.9999999991
0
ARC
5
F2
100
AcDbEntity
8
PRINCIPAL
6
CONTINUOUS
62
7
370
0
100
AcDbCircle
10
1.5000082388
20
-17.0000022671
40
0.5
100
AcDbArc
50
30.0000000015
51
239.999999999
0
ARC
5
F3
100
AcDbEntity
8
PRINCIPAL
6
CONTINUOUS
62
7
370
0
100
AcDbCircle
10
2.3660336425
20
-16.5000022671
40
0.5
100
AcDbArc
50
210.000000002
51
270
0
LINE
5
F4
100
AcDbEntity
8
PRINCIPAL
6
CONTINUOUS
62
7
370
0
100
AcDbLine
10
29.733982835
20
-17.0000022671
11
2.3660336425
21
-17.0000022671
0
ARC
5
F5
100
AcDbEntity
8
PRINCIPAL
6
CONTINUOUS
62
7
370
0
100
AcDbCircle
10
29.733982835
20
-16.5000022671
40
0.5
100
AcDbArc
50
270
51
329.999999999
0
ARC
5
F6
100
AcDbEntity
8
PRINCIPAL
6
CONTINUOUS
62
7
370
0
100
AcDbCircle
10
30.6000082388
20
-17.0000022671
40
0.5
100
AcDbArc
50
300.000000001
51
149.999999999
0
ARC
5
F7
100
AcDbEntity
8
PRINCIPAL
6
CONTINUOUS
62
7
370
0
100
AcDbCircle
10
31.1000082388
20
-17.8660276709
40
0.5
100
AcDbArc
50
120.000000001
51
180
0
LINE
5
F8
100
AcDbEntity
8
PRINCIPAL
6
CONTINUOUS
62
7
370
0
100
AcDbLine
10
30.6000082388
20
-27.1339768633
11
30.6000082388
21
-17.8660276709
0
ARC
5
F9
100
AcDbEntity
8
PRINCIPAL
6
CONTINUOUS
62
7
370
0
100
AcDbCircle
10
31.1000082388
20
-27.1339768633
40
0.5
100
AcDbArc
50
180
51
239.999999999
0
ARC
5
FA
100
AcDbEntity
8
PRINCIPAL
6
CONTINUOUS
62
7
370
0
100
AcDbCircle
10
30.6000082388
20
-28.0000022671
40
0.5
100
AcDbArc
50
210.000000002
51
59.9999999991
0
ARC
5
FB
100
AcDbEntity
8
PRINCIPAL
6
CONTINUOUS
62
7
370
0
100
AcDbCircle
10
29.733982835
20
-28.5000022671
40
0.5
100
AcDbArc
50
30.0000000015
51
90
0
LINE
5
FC
100
AcDbEntity
8
PRINCIPAL
6
CONTINUOUS
62
7
370
0
100
AcDbLine
10
2.3660336426
20
-28.0000022671
11
29.733982835
21
-28.0000022671
0
ARC
5
FD
100
AcDbEntity
8
PRINCIPAL
6
CONTINUOUS
62
7
370
0
100
AcDbCircle
10
2.3660336426
20
-28.5000022671
40
0.5
100
AcDbArc
50
90
51
149.999999999
0
ARC
5
FE
100
AcDbEntity
8
PRINCIPAL
6
CONTINUOUS
62
7
370
0
100
AcDbCircle
10
1.5000082388
20
-28.0000022671
40
0.5
100
AcDbArc
50
120.000000001
51
329.999999999
0
ARC
5
FF
100
AcDbEntity
8
PRINCIPAL
6
CONTINUOUS
62
7
370
0
100
AcDbCircle
10
1.0000082388
20
-27.1339768633
40
0.5
100
AcDbArc
50
300.000000001
51
0
0
LINE
5
100
100
AcDbEntity
8
PRINCIPAL
6
CONTINUOUS
62
7
370
0
100
AcDbLine
10
-14.5624061113
20
27.1339768626
11
-14.5624061113
21
17.8660276702
0
ARC
5
101
100
AcDbEntity
8
PRINCIPAL
6
CONTINUOUS
62
7
370
0
100
AcDbCircle
10
-15.0624061113
20
27.1339768626
40
0.5
100
AcDbArc
50
0
51
59.9999999991
0
ARC
5
102
100
AcDbEntity
8
PRINCIPAL
6
CONTINUOUS
62
7
370
0
100
AcDbCircle
10
-14.5624061113
20
28.0000022664
40
0.5
100
AcDbArc
50
30.0000000015
51
239.999999999
0
ARC
5
103
100
AcDbEntity
8
PRINCIPAL
6
CONTINUOUS
62
7
370
0
100
AcDbCircle
10
-13.6963807075
20
28.5000022664
40
0.5
100
AcDbArc
50
210.000000002
51
270
0
ARC
5
104
100
AcDbEntity
8
PRINCIPAL
6
CONTINUOUS
62
7
370
0
100
AcDbCircle
10
13.6715684849
20
28.5000022664
40
0.5
100
AcDbArc
50
270
51
329.999999999
0
ARC
5
105
100
AcDbEntity
8
PRINCIPAL
6
CONTINUOUS
62
7
370
0
100
AcDbCircle
10
14.5375938887
20
28.0000022664
40
0.5
100
AcDbArc
50
300.000000001
51
149.999999999
0
ARC
5
106
100
AcDbEntity
8
PRINCIPAL
6
CONTINUOUS
62
7
370
0
100
AcDbCircle
10
15.0375938887
20
27.1339768626
40
0.5
100
AcDbArc
50
120.000000001
51
180
0
LINE
5
107
100
AcDbEntity
8
PRINCIPAL
6
CONTINUOUS
62
7
370
0
100
AcDbLine
10
14.5375938887
20
17.8660276702
11
14.5375938887
21
27.1339768626
0
ARC
5
108
100
AcDbEntity
8
PRINCIPAL
6
CONTINUOUS
62
7
370
0
100
AcDbCircle
10
15.0375938887
20
17.8660276702
40
0.5
100
AcDbArc
50
180
51
239.999999999
0
ARC
5
109
100
AcDbEntity
8
PRINCIPAL
6
CONTINUOUS
62
7
370
0
100
AcDbCircle
10
14.5375938887
20
17.0000022664
40
0.5
100
AcDbArc
50
210.000000002
51
59.9999999991
0
ARC
5
10A
100
AcDbEntity
8
PRINCIPAL
6
CONTINUOUS
62
7
370
0
100
AcDbCircle
10
13.6715684849
20
16.5000022664
40
0.5
100
AcDbArc
50
30.0000000015
51
90
0
LINE
5
10B
100
AcDbEntity
8
PRINCIPAL
6
CONTINUOUS
62
7
370
0
100
AcDbLine
10
-13.6963807075
20
17.0000022664
11
13.6715684849
21
17.0000022664
0
ARC
5
10C
100
AcDbEntity
8
PRINCIPAL
6
CONTINUOUS
62
7
370
0
100
AcDbCircle
10
-13.6963807075
20
16.5000022664
40
0.5
100
AcDbArc
50
90
51
149.999999999
0
ARC
5
10D
100
AcDbEntity
8
PRINCIPAL
6
CONTINUOUS
62
7
370
0
100
AcDbCircle
10
-14.5624061113
20
17.0000022664
40
0.5
100
AcDbArc
50
120.000000001
51
329.999999999
0
ARC
5
10E
100
AcDbEntity
8
PRINCIPAL
6
CONTINUOUS
62
7
370
0
100
AcDbCircle
10
-15.0624061113
20
17.8660276702
40
0.5
100
AcDbArc
50
300.000000001
51
0
0
LINE
5
10F
100
AcDbEntity
8
PRINCIPAL
6
CONTINUOUS
62
7
370
0
100
AcDbLine
10
-7.0152066149
20
13.0000015109
11
-7.0152066149
21
11.0000013089
0
LINE
5
110
100
AcDbEntity
8
PRINCIPAL
6
CONTINUOUS
62
7
370
0
100
AcDbLine
10
-7.0152066149
20
11.0000013089
11
-12.0152071189
21
11.0000013089
0
LINE
5
111
100
AcDbEntity
8
PRINCIPAL
6
CONTINUOUS
62
7
370
0
100
AcDbLine
10
-12.0152071189
20
11.0000013089
11
-12.0152071189
21
13.0000015109
0
LINE
5
112
100
AcDbEntity
8
PRINCIPAL
6
CONTINUOUS
62
7
370
0
100
AcDbLine
10
-12.0152071189
20
13.0000015109
11
-7.0152066149
21
13.0000015109
0
LINE
5
113
100
AcDbEntity
8
PRINCIPAL
6
CONTINUOUS
62
7
370
0
100
AcDbLine
10
21.1499625264
20
7.2076246203
11
21.1499737396
21
2.9076274203
0
LINE
5
114
100
AcDbEntity
8
PRINCIPAL
6
CONTINUOUS
62
7
370
0
100
AcDbLine
10
21.1499737396
20
2.9076274203
11
14.8499737396
21
2.9076109917
0
LINE
5
115
100
AcDbEntity
8
PRINCIPAL
6
CONTINUOUS
62
7
370
0
100
AcDbLine
10
14.8499737396
20
2.9076109917
11
14.8499625264
21
7.2076109917
0
LINE
5
116
100
AcDbEntity
8
PRINCIPAL
6
CONTINUOUS
62
7
370
0
100
AcDbLine
10
14.8499625264
20
7.2076109917
11
19.8499625264
21
7.2076240302
0
LINE
5
117
100
AcDbEntity
8
PRINCIPAL
6
CONTINUOUS
62
7
370
0
100
AcDbLine
10
19.8499625264
20
7.2076240302
11
19.8499541817
21
10.4076212302
0
LINE
5
118
100
AcDbEntity
8
PRINCIPAL
6
CONTINUOUS
62
7
370
0
100
AcDbLine
10
19.8499541817
20
10.4076212302
11
23.0499541818
21
10.4076295749
0
LINE
5
119
100
AcDbEntity
8
PRINCIPAL
6
CONTINUOUS
62
7
370
0
100
AcDbLine
10
23.0499541818
20
10.4076295749
11
23.0499625265
21
7.2076295749
0
LINE
5
11A
100
AcDbEntity
8
PRINCIPAL
6
CONTINUOUS
62
7
370
0
100
AcDbLine
10
23.0499625265
20
7.2076295749
11
21.1499625264
21
7.2076246203
0
LINE
5
11B
100
AcDbEntity
8
PRINCIPAL
6
CONTINUOUS
62
7
370
0
100
AcDbLine
10
11.9847948961
20
11.0000013089
11
6.984794392
21
11.0000013089
0
LINE
5
11C
100
AcDbEntity
8
PRINCIPAL
6
CONTINUOUS
62
7
370
0
100
AcDbLine
10
6.984794392
20
11.0000013089
11
6.984794392
21
13.0000015109
0
LINE
5
11D
100
AcDbEntity
8
PRINCIPAL
6
CONTINUOUS
62
7
370
0
100
AcDbLine
10
6.984794392
20
13.0000015109
11
11.9847948961
21
13.0000015109
0
LINE
5
11E
100
AcDbEntity
8
PRINCIPAL
6
CONTINUOUS
62
7
370
0
100
AcDbLine
10
11.9847948961
20
13.0000015109
11
11.9847948961
21
11.0000013089
0
LINE
5
11F
100
AcDbEntity
8
PRINCIPAL
6
CONTINUOUS
62
7
370
0
100
AcDbLine
10
8.9845955
20
-11.0000013101
11
8.9845955
21
-13.0000015111
0
LINE
5
120
100
AcDbEntity
8
PRINCIPAL
6
CONTINUOUS
62
7
370
0
100
AcDbLine
10
8.9845955
20
-13.0000015111
11
3.9845949971
21
-13.0000015111
0
LINE
5
121
100
AcDbEntity
8
PRINCIPAL
6
CONTINUOUS
62
7
370
0
100
AcDbLine
10
3.9845949971
20
-13.0000015111
11
3.9845949971
21
-11.0000013101
0
LINE
5
122
100
AcDbEntity
8
PRINCIPAL
6
CONTINUOUS
62
7
370
0
100
AcDbLine
10
3.9845949971
20
-11.0000013101
11
8.9845955
21
-11.0000013101
0
LINE
5
123
100
AcDbEntity
8
PRINCIPAL
6
CONTINUOUS
62
7
370
0
100
AcDbLine
10
-9.0154077234
20
-11.0000013101
11
-4.0154072196
21
-11.0000013101
0
LINE
5
124
100
AcDbEntity
8
PRINCIPAL
6
CONTINUOUS
62
7
370
0
100
AcDbLine
10
-4.0154072196
20
-11.0000013101
11
-4.0154072196
21
-13.0000015111
0
LINE
5
125
100
AcDbEntity
8
PRINCIPAL
6
CONTINUOUS
62
7
370
0
100
AcDbLine
10
-4.0154072196
20
-13.0000015111
11
-9.0154077234
21
-13.0000015111
0
LINE
5
126
100
AcDbEntity
8
PRINCIPAL
6
CONTINUOUS
62
7
370
0
100
AcDbLine
10
-9.0154077234
20
-13.0000015111
11
-9.0154077234
21
-11.0000013101
0
LINE
5
127
100
AcDbEntity
8
PRINCIPAL
6
CONTINUOUS
62
7
370
0
100
AcDbLine
10
28
20
-10.999999799
11
28
21
-13
0
LINE
5
128
100
AcDbEntity
8
PRINCIPAL
6
CONTINUOUS
62
7
370
0
100
AcDbLine
10
28
20
-13
11
22.999999497
21
-13
0
LINE
5
129
100
AcDbEntity
8
PRINCIPAL
6
CONTINUOUS
62
7
370
0
100
AcDbLine
10
22.999999497
20
-13
11
22.999999497
21
-10.999999799
0
LINE
5
12A
100
AcDbEntity
8
PRINCIPAL
6
CONTINUOUS
62
7
370
0
100
AcDbLine
10
22.999999497
20
-10.999999799
11
28
21
-10.999999799
0
LINE
5
12B
100
AcDbEntity
8
PRINCIPAL
6
CONTINUOUS
62
7
370
0
100
AcDbLine
10
-28.0154092344
20
-11.0000013101
11
-23.0154087307
21
-11.0000013101
0
LINE
5
12C
100
AcDbEntity
8
PRINCIPAL
6
CONTINUOUS
62
7
370
0
100
AcDbLine
10
-23.0154087307
20
-11.0000013101
11
-23.0154087307
21
-13.0000015111
0
LINE
5
12D
100
AcDbEntity
8
PRINCIPAL
6
CONTINUOUS
62
7
370
0
100
AcDbLine
10
-23.0154087307
20
-13.0000015111
11
-28.0154092344
21
-13.0000015111
0
LINE
5
12E
100
AcDbEntity
8
PRINCIPAL
6
CONTINUOUS
62
7
370
0
100
AcDbLine
10
-28.0154092344
20
-13.0000015111
11
-28.0154092344
21
-11.0000013101
0
LINE
5
12F
100
AcDbEntity
8
PRINCIPAL
6
CONTINUOUS
62
7
370
0
100
AcDbLine
10
33.3345969461
20
-7.1424186119
11
36.634597278
21
-7.1424186119
0
LINE
5
130
100
AcDbEntity
8
PRINCIPAL
6
CONTINUOUS
62
7
370
0
100
AcDbLine
10
33.3345969461
20
-1.8424180779
11
33.3345969461
21
-7.1424186119
0
LINE
5
131
100
AcDbEntity
8
PRINCIPAL
6
CONTINUOUS
62
7
370
0
100
AcDbLine
10
36.634597278
20
-1.8424180779
11
33.3345969461
21
-1.8424180779
0
LINE
5
132
100
AcDbEntity
8
PRINCIPAL
6
CONTINUOUS
62
7
370
0
100
AcDbLine
10
36.634597278
20
-7.1424186119
11
36.634597278
21
-1.8424180779
0
LINE
5
133
100
AcDbEntity
8
PRINCIPAL
6
CONTINUOUS
62
7
370
0
100
AcDbLine
10
-36.6653958747
20
-7.1424186119
11
-33.3653955422
21
-7.1424186119
0
LINE
5
134
100
AcDbEntity
8
PRINCIPAL
6
CONTINUOUS
62
7
370
0
100
AcDbLine
10
-36.6653958747
20
-1.8424180779
11
-36.6653958747
21
-7.1424186119
0
LINE
5
135
100
AcDbEntity
8
PRINCIPAL
6
CONTINUOUS
62
7
370
0
100
AcDbLine
10
-33.3653955422
20
-1.8424180779
11
-36.6653958747
21
-1.8424180779
0
LINE
5
136
100
AcDbEntity
8
PRINCIPAL
6
CONTINUOUS
62
7
370
0
100
AcDbLine
10
-33.3653955422
20
-7.1424186119
11
-33.3653955422
21
-1.8424180779
0
LINE
5
137
100
AcDbEntity
8
PRINCIPAL
6
CONTINUOUS
62
7
370
0
100
AcDbLine
10
-21.15
20
2.9075722671
11
-14.85
21
2.9075722671
0
LINE
5
138
100
AcDbEntity
8
PRINCIPAL
6
CONTINUOUS
62
7
370
0
100
AcDbLine
10
-21.15
20
7.2075694671
11
-21.15
21
2.9075722671
0
LINE
5
139
100
AcDbEntity
8
PRINCIPAL
6
CONTINUOUS
62
7
370
0
100
AcDbLine
10
-23.0500000001
20
7.2075694671
11
-21.15
21
7.2075694671
0
LINE
5
13A
100
AcDbEntity
8
PRINCIPAL
6
CONTINUOUS
62
7
370
0
100
AcDbLine
10
-23.0500000001
20
10.4075694671
11
-23.0500000001
21
7.2075694671
0
LINE
5
13B
100
AcDbEntity
8
PRINCIPAL
6
CONTINUOUS
62
7
370
0
100
AcDbLine
10
-19.85
20
10.4075694671
11
-23.0500000001
21
10.4075694671
0
LINE
5
13C
100
AcDbEntity
8
PRINCIPAL
6
CONTINUOUS
62
7
370
0
100
AcDbLine
10
-19.85
20
7.2075722671
11
-19.85
21
10.4075694671
0
LINE
5
13D
100
AcDbEntity
8
PRINCIPAL
6
CONTINUOUS
62
7
370
0
100
AcDbLine
10
-14.85
20
7.2075722671
11
-19.85
21
7.2075722671
0
LINE
5
13E
100
AcDbEntity
8
PRINCIPAL
6
CONTINUOUS
62
7
370
0
100
AcDbLine
10
-14.85
20
2.9075722671
11
-14.85
21
7.2075722671
0
CIRCLE
5
13F
100
AcDbEntity
8
PRINCIPAL
6
CONTINUOUS
62
7
370
0
100
AcDbCircle
10
34.9845971121
20
-13.9947186119
40
1.60000016119
0
CIRCLE
5
140
100
AcDbEntity
8
PRINCIPAL
6
CONTINUOUS
62
7
370
0
100
AcDbCircle
10
-35.0153957084
20
-13.9947186119
40
1.60000016119
0
LINE
5
141
100
AcDbEntity
8
PRINCIPAL
6
CONTINUOUS
62
7
370
0
100
AcDbLine
10
13.6716
20
28
11
-13.6964
21
28
0
ENDSEC
0
SECTION
2
OBJECTS
0
DICTIONARY
5
C
330
0
100
AcDbDictionary
281
1
3
ACAD_GROUP
350
D
0
DICTIONARY
5
D
330
C
100
AcDbDictionary
281
1
0
ENDSEC
0
EOF
