999
dxfrw 0.5.10
0
SECTION
2
HEADER
9
$ACADVER
1
AC1021
9
$HANDSEED
5
20000
9
$DWGCODEPAGE
3
ANSI_1252
9
$INSBASE
10
0
20
0
30
0
9
$EXTMIN
10
-30.00000125
20
-61.500052
30
0
9
$EXTMAX
10
34.69994875
20
0
30
0
9
$LIMMIN
10
0
20
0
9
$LIMMAX
10
783.905288
20
486.837384
9
$ORTHOMODE
70
0
9
$LTSCALE
40
1
9
$TEXTSTYLE
7
Standard
9
$CLAYER
8
PRINCIPAL
9
$DIMASZ
40
0.18
9
$DIMLFAC
40
1
9
$DIMSCALE
40
1
9
$DIMEXO
40
0.0625
9
$DIMEXE
40
0.18
9
$DIMTXT
40
3
9
$DIMTSZ
40
0
9
$DIMAUNIT
70
0
9
$DIMADEC
70
0
9
$DIMLUNIT
70
2
9
$DIMSTYLE
2
Standard
9
$DIMGAP
40
0.09
9
$DIMTIH
70
1
9
$LUNITS
70
2
9
$LUPREC
70
4
9
$AUNITS
70
0
9
$AUPREC
70
0
9
$SPLINESEGS
70
8
9
$GRIDMODE
70
1
9
$SNAPSTYLE
70
0
9
$GRIDUNIT
10
0
20
0
9
$PINSBASE
10
0
20
0
30
0
9
$PLIMMIN
10
0
20
0
9
$PLIMMAX
10
0
20
0
9
$INSUNITS
70
4
9
$PSVPSCALE
40
0
0
ENDSEC
0
SECTION
2
CLASSES
0
ENDSEC
0
SECTION
2
TABLES
0
TABLE
2
VPORT
5
8
330
0
100
AcDbSymbolTable
70
1
0
VPORT
5
31
330
2
100
AcDbSymbolTableRecord
100
AcDbViewportTableRecord
2
*ACTIVE
70
0
10
0
20
0
11
1
21
1
12
-14.6567619634
22
-28.0989552519
13
0
23
0
14
10
24
10
15
10
25
10
16
0
26
0
36
1
17
0
27
0
37
0
40
0.765427787906
41
1.81762114537
42
50
43
0
44
0
50
0
51
0
71
0
72
100
73
1
74
3
75
0
76
1
77
0
78
0
281
0
65
1
110
0
120
0
130
0
111
1
121
0
131
0
112
0
122
1
132
0
79
0
146
0
348
10020
60
7
61
5
292
1
282
1
141
0
142
0
63
250
421
3358443
0
ENDTAB
0
TABLE
2
LTYPE
5
5
330
0
100
AcDbSymbolTable
70
4
0
LTYPE
5
14
330
5
100
AcDbSymbolTableRecord
100
AcDbLinetypeTableRecord
2
ByBlock
70
0
3

72
65
73
0
40
0
0
LTYPE
5
15
330
5
100
AcDbSymbolTableRecord
100
AcDbLinetypeTableRecord
2
ByLayer
70
0
3

72
65
73
0
40
0
0
LTYPE
5
16
330
5
100
AcDbSymbolTableRecord
100
AcDbLinetypeTableRecord
2
Continuous
70
0
3
Solid line
72
65
73
0
40
0
0
LTYPE
5
32
330
5
100
AcDbSymbolTableRecord
100
AcDbLinetypeTableRecord
2
DOT
70
0
3
Dot . . . . . . . . . . . . . . . . . . . . . .
72
65
73
2
40
6.35
49
0
74
0
49
-6.35
74
0
0
LTYPE
5
33
330
5
100
AcDbSymbolTableRecord
100
AcDbLinetypeTableRecord
2
DOT2
70
0
3
Dot (.5x) .....................................
72
65
73
2
40
3.175
49
0
74
0
49
-3.175
74
0
0
LTYPE
5
34
330
5
100
AcDbSymbolTableRecord
100
AcDbLinetypeTableRecord
2
DOTX2
70
0
3
Dot (2x) .  .  .  .  .  .  .  .  .  .  .  .  .
72
65
73
2
40
12.7
49
0
74
0
49
-12.7
74
0
0
LTYPE
5
35
330
5
100
AcDbSymbolTableRecord
100
AcDbLinetypeTableRecord
2
DASHED
70
0
3
Dot . . . . . . . . . . . . . . . . . . . . . .
72
65
73
2
40
19.05
49
12.7
74
0
49
-6.35
74
0
0
LTYPE
5
36
330
5
100
AcDbSymbolTableRecord
100
AcDbLinetypeTableRecord
2
DASHED2
70
0
3
Dashed (.5x) _ _ _ _ _ _ _ _ _ _ _ _ _ _ _ _ _
72
65
73
2
40
9.525
49
6.35
74
0
49
-3.175
74
0
0
LTYPE
5
37
330
5
100
AcDbSymbolTableRecord
100
AcDbLinetypeTableRecord
2
DASHEDX2
70
0
3
Dashed (2x) ____  ____  ____  ____  ____  ___
72
65
73
2
40
38.1
49
25.4
74
0
49
-12.7
74
0
0
LTYPE
5
38
330
5
100
AcDbSymbolTableRecord
100
AcDbLinetypeTableRecord
2
DASHDOT
70
0
3
Dash dot __ . __ . __ . __ . __ . __ . __ . __
72
65
73
4
40
25.4
49
12.7
74
0
49
-6.35
74
0
49
0
74
0
49
-6.35
74
0
0
LTYPE
5
39
330
5
100
AcDbSymbolTableRecord
100
AcDbLinetypeTableRecord
2
DASHDOT2
70
0
3
Dash dot (.5x) _._._._._._._._._._._._._._._.
72
65
73
4
40
12.7
49
6.35
74
0
49
-3.175
74
0
49
0
74
0
49
-3.175
74
0
0
LTYPE
5
3A
330
5
100
AcDbSymbolTableRecord
100
AcDbLinetypeTableRecord
2
DASHDOTX2
70
0
3
Dash dot (2x) ____  .  ____  .  ____  .  ___
72
65
73
4
40
50.8
49
25.4
74
0
49
-12.7
74
0
49
0
74
0
49
-12.7
74
0
0
LTYPE
5
3B
330
5
100
AcDbSymbolTableRecord
100
AcDbLinetypeTableRecord
2
DIVIDE
70
0
3
Divide ____ . . ____ . . ____ . . ____ . . ____
72
65
73
6
40
31.75
49
12.7
74
0
49
-6.35
74
0
49
0
74
0
49
-6.35
74
0
49
0
74
0
49
-6.35
74
0
0
LTYPE
5
3C
330
5
100
AcDbSymbolTableRecord
100
AcDbLinetypeTableRecord
2
DIVIDE2
70
0
3
Divide (.5x) __..__..__..__..__..__..__..__.._
72
65
73
6
40
15.875
49
6.35
74
0
49
-3.175
74
0
49
0
74
0
49
-3.175
74
0
49
0
74
0
49
-3.175
74
0
0
LTYPE
5
3D
330
5
100
AcDbSymbolTableRecord
100
AcDbLinetypeTableRecord
2
DIVIDEX2
70
0
3
Divide (2x) ________  .  .  ________  .  .  _
72
65
73
6
40
63.5
49
25.4
74
0
49
-12.7
74
0
49
0
74
0
49
-12.7
74
0
49
0
74
0
49
-12.7
74
0
0
LTYPE
5
3E
330
5
100
AcDbSymbolTableRecord
100
AcDbLinetypeTableRecord
2
BORDER
70
0
3
Border __ __ . __ __ . __ __ . __ __ . __ __ .
72
65
73
6
40
44.45
49
12.7
74
0
49
-6.35
74
0
49
12.7
74
0
49
-6.35
74
0
49
0
74
0
49
-6.35
74
0
0
LTYPE
5
3F
330
5
100
AcDbSymbolTableRecord
100
AcDbLinetypeTableRecord
2
BORDER2
70
0
3
Border (.5x) __.__.__.__.__.__.__.__.__.__.__.
72
65
73
6
40
22.225
49
6.35
74
0
49
-3.175
74
0
49
6.35
74
0
49
-3.175
74
0
49
0
74
0
49
-3.175
74
0
0
LTYPE
5
40
330
5
100
AcDbSymbolTableRecord
100
AcDbLinetypeTableRecord
2
BORDERX2
70
0
3
Border (2x) ____  ____  .  ____  ____  .  ___
72
65
73
6
40
88.9
49
25.4
74
0
49
-12.7
74
0
49
25.4
74
0
49
-12.7
74
0
49
0
74
0
49
-12.7
74
0
0
LTYPE
5
41
330
5
100
AcDbSymbolTableRecord
100
AcDbLinetypeTableRecord
2
CENTER
70
0
3
Center ____ _ ____ _ ____ _ ____ _ ____ _ ____
72
65
73
4
40
50.8
49
31.75
74
0
49
-6.35
74
0
49
6.35
74
0
49
-6.35
74
0
0
LTYPE
5
42
330
5
100
AcDbSymbolTableRecord
100
AcDbLinetypeTableRecord
2
CENTER2
70
0
3
Center (.5x) ___ _ ___ _ ___ _ ___ _ ___ _ ___
72
65
73
4
40
28.575
49
19.05
74
0
49
-3.175
74
0
49
3.175
74
0
49
-3.175
74
0
0
LTYPE
5
43
330
5
100
AcDbSymbolTableRecord
100
AcDbLinetypeTableRecord
2
CENTERX2
70
0
3
Center (2x) ________  __  ________  __  _____
72
65
73
4
40
101.6
49
63.5
74
0
49
-12.7
74
0
49
12.7
74
0
49
-12.7
74
0
0
ENDTAB
0
TABLE
2
LAYER
5
2
330
0
100
AcDbSymbolTable
70
1
0
LAYER
5
10
330
2
100
AcDbSymbolTableRecord
100
AcDbLayerTableRecord
2
0
70
0
62
7
6
CONTINUOUS
370
-3
390
F
0
LAYER
5
44
330
2
100
AcDbSymbolTableRecord
100
AcDbLayerTableRecord
2
PRINCIPAL
70
0
62
7
6
CONTINUOUS
370
-3
390
F
0
ENDTAB
0
TABLE
2
STYLE
5
3
330
0
100
AcDbSymbolTable
70
3
0
STYLE
5
45
330
2
100
AcDbSymbolTableRecord
100
AcDbTextStyleTableRecord
2
Standard
70
0
40
0
41
1
50
0
71
0
42
1
3
txt
4

0
ENDTAB
0
TABLE
2
VIEW
5
6
330
0
100
AcDbSymbolTable
70
0
0
ENDTAB
0
TABLE
2
UCS
5
7
330
0
100
AcDbSymbolTable
70
0
0
ENDTAB
0
TABLE
2
APPID
5
9
330
0
100
AcDbSymbolTable
70
1
0
APPID
5
12
330
9
100
AcDbSymbolTableRecord
100
AcDbRegAppTableRecord
2
ACAD
70
0
0
ENDTAB
0
TABLE
2
DIMSTYLE
5
A
330
0
100
AcDbSymbolTable
70
1
100
AcDbDimStyleTable
71
1
0
DIMSTYLE
105
46
330
A
100
AcDbSymbolTableRecord
100
AcDbDimStyleTableRecord
2
Standard
70
0
40
1
41
0.18
42
0.0625
43
0.38
44
0.18
45
0
46
0
47
0
48
0
140
3
141
0.09
142
0
143
25.4
144
1
145
0
146
1
147
0.09
148
0
71
0
72
0
73
0
74
1
75
0
76
0
77
0
78
0
79
0
170
0
171
2
172
0
173
0
174
0
175
0
176
0
177
0
178
0
179
0
271
4
272
4
273
2
274
2
275
0
276
0
277
2
278
46
279
0
280
0
281
0
282
0
283
1
284
0
285
0
286
0
288
0
289
3
340
Standard
341

371
-2
372
-2
0
ENDTAB
0
TABLE
2
BLOCK_RECORD
5
1
330
0
100
AcDbSymbolTable
70
2
0
BLOCK_RECORD
5
1F
330
1
100
AcDbSymbolTableRecord
100
AcDbBlockTableRecord
2
*Model_Space
70
0
280
1
281
0
0
BLOCK_RECORD
5
1E
330
1
100
AcDbSymbolTableRecord
100
AcDbBlockTableRecord
2
*Paper_Space
70
0
280
1
281
0
0
ENDTAB
0
ENDSEC
0
SECTION
2
BLOCKS
0
BLOCK
5
20
330
1F
100
AcDbEntity
8
0
100
AcDbBlockBegin
2
*Model_Space
70
0
10
0
20
0
30
0
3
*Model_Space
1

0
ENDBLK
5
21
330
1F
100
AcDbEntity
8
0
100
AcDbBlockEnd
0
BLOCK
5
1C
330
1B
100
AcDbEntity
8
0
100
AcDbBlockBegin
2
*Paper_Space
70
0
10
0
20
0
30
0
3
*Paper_Space
1

0
ENDBLK
5
1D
330
1F
100
AcDbEntity
8
0
100
AcDbBlockEnd
0
ENDSEC
0
SECTION
2
ENTITIES
0
LINE
5
47
100
AcDbEntity
8
PRINCIPAL
6
CONTINUOUS
62
7
370
-3
100
AcDbLine
10
-29.99999525
20
-3.000052
11
-14.46602025
21
-3.000055
0
ARC
5
48
100
AcDbEntity
8
PRINCIPAL
6
CONTINUOUS
62
7
370
-3
100
AcDbCircle
10
-14.46602025
20
-3.500055
40
0.5
100
AcDbArc
50
30.000198
51
90
0
ARC
5
49
100
AcDbEntity
8
PRINCIPAL
6
CONTINUOUS
62
7
370
-3
100
AcDbCircle
10
-13.59999625
20
-3.000052
40
0.5
100
AcDbArc
50
210.000198
51
60
0
ARC
5
4A
100
AcDbEntity
8
PRINCIPAL
6
CONTINUOUS
62
7
370
-3
100
AcDbCircle
10
-13.09999625
20
-2.134027
40
0.5
100
AcDbArc
50
180
51
240
0
LINE
5
4B
100
AcDbEntity
8
PRINCIPAL
6
CONTINUOUS
62
7
370
-3
100
AcDbLine
10
-13.59999625
20
-2.134027
11
-13.59999925
21
-0.5
0
ARC
5
4C
100
AcDbEntity
8
PRINCIPAL
6
CONTINUOUS
62
7
370
-3
100
AcDbCircle
10
-13.09999925
20
-0.5
40
0.5
100
AcDbArc
50
90
51
180
0
LINE
5
4D
100
AcDbEntity
8
PRINCIPAL
6
CONTINUOUS
62
7
370
-3
100
AcDbLine
10
-13.09999925
20
0
11
-8.10000225
21
0
0
ARC
5
4E
100
AcDbEntity
8
PRINCIPAL
6
CONTINUOUS
62
7
370
-3
100
AcDbCircle
10
-8.10000225
20
-0.5
40
0.5
100
AcDbArc
50
0
51
90
0
LINE
5
4F
100
AcDbEntity
8
PRINCIPAL
6
CONTINUOUS
62
7
370
-3
100
AcDbLine
10
-7.60000225
20
-0.5
11
-7.60000225
21
-2.134029
0
ARC
5
50
100
AcDbEntity
8
PRINCIPAL
6
CONTINUOUS
62
7
370
-3
100
AcDbCircle
10
-8.10000225
20
-2.134029
40
0.5
100
AcDbArc
50
300.000198
51
0
0
ARC
5
51
100
AcDbEntity
8
PRINCIPAL
6
CONTINUOUS
62
7
370
-3
100
AcDbCircle
10
-7.59999925
20
-3.000052
40
0.5
100
AcDbArc
50
120.000198
51
330
0
ARC
5
52
100
AcDbEntity
8
PRINCIPAL
6
CONTINUOUS
62
7
370
-3
100
AcDbCircle
10
-6.73397325
20
-3.500052
40
0.5
100
AcDbArc
50
90
51
150
0
LINE
5
53
100
AcDbEntity
8
PRINCIPAL
6
CONTINUOUS
62
7
370
-3
100
AcDbLine
10
-6.73397325
20
-3.000052
11
-1.60000225
21
-3.000052
0
LINE
5
54
100
AcDbEntity
8
PRINCIPAL
6
CONTINUOUS
62
7
370
-3
100
AcDbLine
10
-1.60000225
20
-3.000052
11
-1.60000225
21
-6.000024
0
LINE
5
55
100
AcDbEntity
8
PRINCIPAL
6
CONTINUOUS
62
7
370
-3
100
AcDbLine
10
-1.60000225
20
-6.000024
11
-2.87499725
21
-6.000024
0
LINE
5
56
100
AcDbEntity
8
PRINCIPAL
6
CONTINUOUS
62
7
370
-3
100
AcDbLine
10
-2.87499725
20
-6.000024
11
-2.87499725
21
-10.000052
0
LINE
5
57
100
AcDbEntity
8
PRINCIPAL
6
CONTINUOUS
62
7
370
-3
100
AcDbLine
10
-2.87499725
20
-10.000052
11
-1.60000225
21
-10.000052
0
LINE
5
58
100
AcDbEntity
8
PRINCIPAL
6
CONTINUOUS
62
7
370
-3
100
AcDbLine
10
-1.60000225
20
-10.000052
11
-1.60000225
21
-13.000052
0
LINE
5
59
100
AcDbEntity
8
PRINCIPAL
6
CONTINUOUS
62
7
370
-3
100
AcDbLine
10
-1.60000225
20
-13.000052
11
1.60000875
21
-13.000052
0
LINE
5
5A
100
AcDbEntity
8
PRINCIPAL
6
CONTINUOUS
62
7
370
-3
100
AcDbLine
10
1.60000875
20
-13.000052
11
1.60000875
21
-10.000052
0
LINE
5
5B
100
AcDbEntity
8
PRINCIPAL
6
CONTINUOUS
62
7
370
-3
100
AcDbLine
10
1.60000875
20
-10.000052
11
2.87500275
21
-10.000052
0
LINE
5
5C
100
AcDbEntity
8
PRINCIPAL
6
CONTINUOUS
62
7
370
-3
100
AcDbLine
10
2.87500275
20
-10.000052
11
2.87500275
21
-6.000024
0
LINE
5
5D
100
AcDbEntity
8
PRINCIPAL
6
CONTINUOUS
62
7
370
-3
100
AcDbLine
10
2.87500275
20
-6.000024
11
1.60000875
21
-6.000024
0
LINE
5
5E
100
AcDbEntity
8
PRINCIPAL
6
CONTINUOUS
62
7
370
-3
100
AcDbLine
10
1.60000875
20
-6.000024
11
1.60000875
21
-3.000052
0
LINE
5
5F
100
AcDbEntity
8
PRINCIPAL
6
CONTINUOUS
62
7
370
-3
100
AcDbLine
10
1.60000875
20
-3.000052
11
6.73398175
21
-3.000055
0
ARC
5
60
100
AcDbEntity
8
PRINCIPAL
6
CONTINUOUS
62
7
370
-3
100
AcDbCircle
10
6.73398175
20
-3.500055
40
0.5
100
AcDbArc
50
30.000198
51
90
0
ARC
5
61
100
AcDbEntity
8
PRINCIPAL
6
CONTINUOUS
62
7
370
-3
100
AcDbCircle
10
7.60000475
20
-3.000052
40
0.5
100
AcDbArc
50
210.000198
51
60
0
ARC
5
62
100
AcDbEntity
8
PRINCIPAL
6
CONTINUOUS
62
7
370
-3
100
AcDbCircle
10
8.10000475
20
-2.134027
40
0.5
100
AcDbArc
50
180
51
240
0
LINE
5
63
100
AcDbEntity
8
PRINCIPAL
6
CONTINUOUS
62
7
370
-3
100
AcDbLine
10
7.60000475
20
-2.134027
11
7.60000175
21
-0.5
0
ARC
5
64
100
AcDbEntity
8
PRINCIPAL
6
CONTINUOUS
62
7
370
-3
100
AcDbCircle
10
8.10000175
20
-0.5
40
0.5
100
AcDbArc
50
90
51
180
0
LINE
5
65
100
AcDbEntity
8
PRINCIPAL
6
CONTINUOUS
62
7
370
-3
100
AcDbLine
10
8.10000175
20
0
11
13.09999975
21
0
0
ARC
5
66
100
AcDbEntity
8
PRINCIPAL
6
CONTINUOUS
62
7
370
-3
100
AcDbCircle
10
13.09999975
20
-0.5
40
0.5
100
AcDbArc
50
0
51
90
0
LINE
5
67
100
AcDbEntity
8
PRINCIPAL
6
CONTINUOUS
62
7
370
-3
100
AcDbLine
10
13.59999975
20
-0.5
11
13.59999975
21
-2.134029
0
ARC
5
68
100
AcDbEntity
8
PRINCIPAL
6
CONTINUOUS
62
7
370
-3
100
AcDbCircle
10
13.09999975
20
-2.134029
40
0.5
100
AcDbArc
50
300.000198
51
0
0
ARC
5
69
100
AcDbEntity
8
PRINCIPAL
6
CONTINUOUS
62
7
370
-3
100
AcDbCircle
10
13.60000275
20
-3.000052
40
0.5
100
AcDbArc
50
120.000198
51
330
0
ARC
5
6A
100
AcDbEntity
8
PRINCIPAL
6
CONTINUOUS
62
7
370
-3
100
AcDbCircle
10
14.46602775
20
-3.500052
40
0.5
100
AcDbArc
50
90
51
150
0
LINE
5
6B
100
AcDbEntity
8
PRINCIPAL
6
CONTINUOUS
62
7
370
-3
100
AcDbLine
10
14.46604875
20
-3.0000076282
11
34.69994875
21
-3.0000076282
0
ARC
5
6C
100
AcDbEntity
8
PRINCIPAL
6
CONTINUOUS
62
7
370
-3
100
AcDbCircle
10
-25.30393325
20
-28.500052
40
0.5
100
AcDbArc
50
90
51
150
0
ARC
5
6D
100
AcDbEntity
8
PRINCIPAL
6
CONTINUOUS
62
7
370
-3
100
AcDbCircle
10
-26.16995825
20
-28.000052
40
0.5
100
AcDbArc
50
120.000198
51
330
0
ARC
5
6E
100
AcDbEntity
8
PRINCIPAL
6
CONTINUOUS
62
7
370
-3
100
AcDbCircle
10
-26.66996125
20
-27.134028
40
0.5
100
AcDbArc
50
300.000198
51
0
0
LINE
5
6F
100
AcDbEntity
8
PRINCIPAL
6
CONTINUOUS
62
7
370
-3
100
AcDbLine
10
-26.16996125
20
-27.134028
11
-26.16996125
21
-22.666078
0
ARC
5
70
100
AcDbEntity
8
PRINCIPAL
6
CONTINUOUS
62
7
370
-3
100
AcDbCircle
10
-26.66996125
20
-22.666078
40
0.5
100
AcDbArc
50
0
51
60
0
ARC
5
71
100
AcDbEntity
8
PRINCIPAL
6
CONTINUOUS
62
7
370
-3
100
AcDbCircle
10
-26.16996125
20
-21.800053
40
0.5
100
AcDbArc
50
30.000199
51
240
0
ARC
5
72
100
AcDbEntity
8
PRINCIPAL
6
CONTINUOUS
62
7
370
-3
100
AcDbCircle
10
-25.30393725
20
-21.30005
40
0.5
100
AcDbArc
50
210.000198
51
270
0
LINE
5
73
100
AcDbEntity
8
PRINCIPAL
6
CONTINUOUS
62
7
370
-3
100
AcDbLine
10
-25.30393725
20
-21.80005
11
-23.73606725
21
-21.800053
0
ARC
5
74
100
AcDbEntity
8
PRINCIPAL
6
CONTINUOUS
62
7
370
-3
100
AcDbCircle
10
-23.73606725
20
-21.300053
40
0.5
100
AcDbArc
50
270
51
330
0
ARC
5
75
100
AcDbEntity
8
PRINCIPAL
6
CONTINUOUS
62
7
370
-3
100
AcDbCircle
10
-22.87004225
20
-21.800053
40
0.5
100
AcDbArc
50
300.000198
51
150
0
ARC
5
76
100
AcDbEntity
8
PRINCIPAL
6
CONTINUOUS
62
7
370
-3
100
AcDbCircle
10
-22.37003925
20
-22.666077
40
0.5
100
AcDbArc
50
120.000198
51
180
0
LINE
5
77
100
AcDbEntity
8
PRINCIPAL
6
CONTINUOUS
62
7
370
-3
100
AcDbLine
10
-22.87003925
20
-22.666077
11
-22.87004225
21
-27.134026
0
ARC
5
78
100
AcDbEntity
8
PRINCIPAL
6
CONTINUOUS
62
7
370
-3
100
AcDbCircle
10
-22.37004225
20
-27.134026
40
0.5
100
AcDbArc
50
180
51
240
0
ARC
5
79
100
AcDbEntity
8
PRINCIPAL
6
CONTINUOUS
62
7
370
-3
100
AcDbCircle
10
-22.87004225
20
-28.000052
40
0.5
100
AcDbArc
50
210.000199
51
60
0
ARC
5
7A
100
AcDbEntity
8
PRINCIPAL
6
CONTINUOUS
62
7
370
-3
100
AcDbCircle
10
-23.73606525
20
-28.500055
40
0.5
100
AcDbArc
50
30.000198
51
90
0
LINE
5
7B
100
AcDbEntity
8
PRINCIPAL
6
CONTINUOUS
62
7
370
-3
100
AcDbLine
10
-23.73606525
20
-28.000055
11
-25.30393325
21
-28.000052
0
ARC
5
7C
100
AcDbEntity
8
PRINCIPAL
6
CONTINUOUS
62
7
370
-3
100
AcDbCircle
10
-25.30393325
20
-49.700051
40
0.5
100
AcDbArc
50
90
51
150
0
ARC
5
7D
100
AcDbEntity
8
PRINCIPAL
6
CONTINUOUS
62
7
370
-3
100
AcDbCircle
10
-26.16995825
20
-49.200051
40
0.5
100
AcDbArc
50
120.000198
51
330
0
ARC
5
7E
100
AcDbEntity
8
PRINCIPAL
6
CONTINUOUS
62
7
370
-3
100
AcDbCircle
10
-26.66996125
20
-48.334027
40
0.5
100
AcDbArc
50
300.000198
51
0
0
LINE
5
7F
100
AcDbEntity
8
PRINCIPAL
6
CONTINUOUS
62
7
370
-3
100
AcDbLine
10
-26.16996125
20
-48.334027
11
-26.16996125
21
-43.866078
0
ARC
5
80
100
AcDbEntity
8
PRINCIPAL
6
CONTINUOUS
62
7
370
-3
100
AcDbCircle
10
-26.66996125
20
-43.866078
40
0.5
100
AcDbArc
50
0
51
60
0
ARC
5
81
100
AcDbEntity
8
PRINCIPAL
6
CONTINUOUS
62
7
370
-3
100
AcDbCircle
10
-26.16996125
20
-43.000052
40
0.5
100
AcDbArc
50
30.000198
51
240
0
ARC
5
82
100
AcDbEntity
8
PRINCIPAL
6
CONTINUOUS
62
7
370
-3
100
AcDbCircle
10
-25.30393725
20
-42.500049
40
0.5
100
AcDbArc
50
210.000198
51
270
0
LINE
5
83
100
AcDbEntity
8
PRINCIPAL
6
CONTINUOUS
62
7
370
-3
100
AcDbLine
10
-25.30393725
20
-43.000049
11
-23.73606725
21
-43.000052
0
ARC
5
84
100
AcDbEntity
8
PRINCIPAL
6
CONTINUOUS
62
7
370
-3
100
AcDbCircle
10
-23.73606725
20
-42.500052
40
0.5
100
AcDbArc
50
270
51
330
0
ARC
5
85
100
AcDbEntity
8
PRINCIPAL
6
CONTINUOUS
62
7
370
-3
100
AcDbCircle
10
-22.87004225
20
-43.000052
40
0.5
100
AcDbArc
50
300.000198
51
150
0
ARC
5
86
100
AcDbEntity
8
PRINCIPAL
6
CONTINUOUS
62
7
370
-3
100
AcDbCircle
10
-22.37003925
20
-43.866076
40
0.5
100
AcDbArc
50
120.000198
51
180
0
LINE
5
87
100
AcDbEntity
8
PRINCIPAL
6
CONTINUOUS
62
7
370
-3
100
AcDbLine
10
-22.87003925
20
-43.866076
11
-22.87004225
21
-48.334026
0
ARC
5
88
100
AcDbEntity
8
PRINCIPAL
6
CONTINUOUS
62
7
370
-3
100
AcDbCircle
10
-22.37004225
20
-48.334026
40
0.5
100
AcDbArc
50
180
51
240
0
ARC
5
89
100
AcDbEntity
8
PRINCIPAL
6
CONTINUOUS
62
7
370
-3
100
AcDbCircle
10
-22.87004225
20
-49.200051
40
0.5
100
AcDbArc
50
210.000199
51
60
0
ARC
5
8A
100
AcDbEntity
8
PRINCIPAL
6
CONTINUOUS
62
7
370
-3
100
AcDbCircle
10
-23.73606525
20
-49.700054
40
0.5
100
AcDbArc
50
30.000198
51
90
0
LINE
5
8B
100
AcDbEntity
8
PRINCIPAL
6
CONTINUOUS
62
7
370
-3
100
AcDbLine
10
-23.73606525
20
-49.200054
11
-25.30393325
21
-49.200051
0
CIRCLE
5
8C
100
AcDbEntity
8
PRINCIPAL
6
CONTINUOUS
62
7
370
-3
100
AcDbCircle
10
-24.52000025
20
-35.500052
40
1.6
0
ARC
5
8D
100
AcDbEntity
8
PRINCIPAL
6
CONTINUOUS
62
7
370
-3
100
AcDbCircle
10
28.73606475
20
-28.500052
40
0.5
100
AcDbArc
50
90
51
150
0
ARC
5
8E
100
AcDbEntity
8
PRINCIPAL
6
CONTINUOUS
62
7
370
-3
100
AcDbCircle
10
27.87003875
20
-28.000052
40
0.5
100
AcDbArc
50
120.000198
51
330
0
ARC
5
8F
100
AcDbEntity
8
PRINCIPAL
6
CONTINUOUS
62
7
370
-3
100
AcDbCircle
10
27.37003575
20
-27.134028
40
0.5
100
AcDbArc
50
300.000199
51
0
0
LINE
5
90
100
AcDbEntity
8
PRINCIPAL
6
CONTINUOUS
62
7
370
-3
100
AcDbLine
10
27.87003575
20
-27.134028
11
27.87003575
21
-22.666078
0
ARC
5
91
100
AcDbEntity
8
PRINCIPAL
6
CONTINUOUS
62
7
370
-3
100
AcDbCircle
10
27.37003575
20
-22.666078
40
0.5
100
AcDbArc
50
0
51
60
0
ARC
5
92
100
AcDbEntity
8
PRINCIPAL
6
CONTINUOUS
62
7
370
-3
100
AcDbCircle
10
27.87003575
20
-21.800053
40
0.5
100
AcDbArc
50
30.000198
51
240
0
ARC
5
93
100
AcDbEntity
8
PRINCIPAL
6
CONTINUOUS
62
7
370
-3
100
AcDbCircle
10
28.73605975
20
-21.30005
40
0.5
100
AcDbArc
50
210.000198
51
270
0
LINE
5
94
100
AcDbEntity
8
PRINCIPAL
6
CONTINUOUS
62
7
370
-3
100
AcDbLine
10
28.73605975
20
-21.80005
11
30.30392975
21
-21.800053
0
ARC
5
95
100
AcDbEntity
8
PRINCIPAL
6
CONTINUOUS
62
7
370
-3
100
AcDbCircle
10
30.30392975
20
-21.300053
40
0.5
100
AcDbArc
50
270
51
330
0
ARC
5
96
100
AcDbEntity
8
PRINCIPAL
6
CONTINUOUS
62
7
370
-3
100
AcDbCircle
10
31.16995575
20
-21.800053
40
0.5
100
AcDbArc
50
300.000198
51
150
0
ARC
5
97
100
AcDbEntity
8
PRINCIPAL
6
CONTINUOUS
62
7
370
-3
100
AcDbCircle
10
31.66995875
20
-22.666077
40
0.5
100
AcDbArc
50
120.000198
51
180
0
LINE
5
98
100
AcDbEntity
8
PRINCIPAL
6
CONTINUOUS
62
7
370
-3
100
AcDbLine
10
31.16995875
20
-22.666077
11
31.16995575
21
-27.134026
0
ARC
5
99
100
AcDbEntity
8
PRINCIPAL
6
CONTINUOUS
62
7
370
-3
100
AcDbCircle
10
31.66995575
20
-27.134026
40
0.5
100
AcDbArc
50
180
51
240
0
ARC
5
9A
100
AcDbEntity
8
PRINCIPAL
6
CONTINUOUS
62
7
370
-3
100
AcDbCircle
10
31.16995575
20
-28.000052
40
0.5
100
AcDbArc
50
210.000198
51
60
0
ARC
5
9B
100
AcDbEntity
8
PRINCIPAL
6
CONTINUOUS
62
7
370
-3
100
AcDbCircle
10
30.30393175
20
-28.500055
40
0.5
100
AcDbArc
50
30.000198
51
90
0
LINE
5
9C
100
AcDbEntity
8
PRINCIPAL
6
CONTINUOUS
62
7
370
-3
100
AcDbLine
10
30.30393175
20
-28.000055
11
28.73606475
21
-28.000052
0
ARC
5
9D
100
AcDbEntity
8
PRINCIPAL
6
CONTINUOUS
62
7
370
-3
100
AcDbCircle
10
28.73606475
20
-49.700051
40
0.5
100
AcDbArc
50
90
51
150
0
ARC
5
9E
100
AcDbEntity
8
PRINCIPAL
6
CONTINUOUS
62
7
370
-3
100
AcDbCircle
10
27.87003875
20
-49.200051
40
0.5
100
AcDbArc
50
120.000198
51
330
0
ARC
5
9F
100
AcDbEntity
8
PRINCIPAL
6
CONTINUOUS
62
7
370
-3
100
AcDbCircle
10
27.37003575
20
-48.334027
40
0.5
100
AcDbArc
50
300.000198
51
0
0
LINE
5
A0
100
AcDbEntity
8
PRINCIPAL
6
CONTINUOUS
62
7
370
-3
100
AcDbLine
10
27.87003575
20
-48.334027
11
27.87003575
21
-43.866078
0
ARC
5
A1
100
AcDbEntity
8
PRINCIPAL
6
CONTINUOUS
62
7
370
-3
100
AcDbCircle
10
27.37003575
20
-43.866078
40
0.5
100
AcDbArc
50
0
51
60
0
ARC
5
A2
100
AcDbEntity
8
PRINCIPAL
6
CONTINUOUS
62
7
370
-3
100
AcDbCircle
10
27.87003575
20
-43.000052
40
0.5
100
AcDbArc
50
30.000198
51
240
0
ARC
5
A3
100
AcDbEntity
8
PRINCIPAL
6
CONTINUOUS
62
7
370
-3
100
AcDbCircle
10
28.73605975
20
-42.500049
40
0.5
100
AcDbArc
50
210.000198
51
270
0
LINE
5
A4
100
AcDbEntity
8
PRINCIPAL
6
CONTINUOUS
62
7
370
-3
100
AcDbLine
10
28.73605975
20
-43.000049
11
30.30392975
21
-43.000052
0
ARC
5
A5
100
AcDbEntity
8
PRINCIPAL
6
CONTINUOUS
62
7
370
-3
100
AcDbCircle
10
30.30392975
20
-42.500052
40
0.5
100
AcDbArc
50
270
51
330
0
ARC
5
A6
100
AcDbEntity
8
PRINCIPAL
6
CONTINUOUS
62
7
370
-3
100
AcDbCircle
10
31.16995575
20
-43.000052
40
0.5
100
AcDbArc
50
300.000198
51
150
0
ARC
5
A7
100
AcDbEntity
8
PRINCIPAL
6
CONTINUOUS
62
7
370
-3
100
AcDbCircle
10
31.66995875
20
-43.866076
40
0.5
100
AcDbArc
50
120.000198
51
180
0
LINE
5
A8
100
AcDbEntity
8
PRINCIPAL
6
CONTINUOUS
62
7
370
-3
100
AcDbLine
10
31.16995875
20
-43.866076
11
31.16995575
21
-48.334026
0
ARC
5
A9
100
AcDbEntity
8
PRINCIPAL
6
CONTINUOUS
62
7
370
-3
100
AcDbCircle
10
31.66995575
20
-48.334026
40
0.5
100
AcDbArc
50
180
51
240
0
ARC
5
AA
100
AcDbEntity
8
PRINCIPAL
6
CONTINUOUS
62
7
370
-3
100
AcDbCircle
10
31.16995575
20
-49.200051
40
0.5
100
AcDbArc
50
210.000198
51
60
0
ARC
5
AB
100
AcDbEntity
8
PRINCIPAL
6
CONTINUOUS
62
7
370
-3
100
AcDbCircle
10
30.30393175
20
-49.700054
40
0.5
100
AcDbArc
50
30.000198
51
90
0
LINE
5
AC
100
AcDbEntity
8
PRINCIPAL
6
CONTINUOUS
62
7
370
-3
100
AcDbLine
10
30.30393175
20
-49.200054
11
28.73606475
21
-49.200051
0
CIRCLE
5
AD
100
AcDbEntity
8
PRINCIPAL
6
CONTINUOUS
62
7
370
-3
100
AcDbCircle
10
29.51999675
20
-35.500052
40
1.6
0
CIRCLE
5
AE
100
AcDbEntity
8
PRINCIPAL
6
CONTINUOUS
62
7
370
-3
100
AcDbCircle
10
-1.24999999684e-06
20
-40.000052
40
11.1
0
CIRCLE
5
AF
100
AcDbEntity
8
PRINCIPAL
6
CONTINUOUS
62
7
370
-3
100
AcDbCircle
10
15.49999875
20
-24.500052
40
1.6
0
CIRCLE
5
B0
100
AcDbEntity
8
PRINCIPAL
6
CONTINUOUS
62
7
370
-3
100
AcDbCircle
10
-15.50000125
20
-55.500052
40
1.6
0
ARC
5
B1
100
AcDbEntity
8
PRINCIPAL
6
CONTINUOUS
62
7
370
-3
100
AcDbCircle
10
-15.5
20
-24.5001
40
1.6
100
AcDbArc
50
360
51
180
0
ARC
5
B2
100
AcDbEntity
8
PRINCIPAL
6
CONTINUOUS
62
7
370
-3
100
AcDbCircle
10
15.49999875
20
-55.500052
40
1.6
100
AcDbArc
50
0
51
180
0
ARC
5
B3
100
AcDbEntity
8
PRINCIPAL
6
CONTINUOUS
62
7
370
-3
100
AcDbCircle
10
-15.5
20
-31.8501
40
4
100
AcDbArc
50
113.578178478
51
66.4218215218
0
LINE
5
B4
100
AcDbEntity
8
PRINCIPAL
6
CONTINUOUS
62
7
370
-3
100
AcDbLine
10
-17.1
20
-24.5001
11
-17.1
21
-28.184039444
0
LINE
5
B5
100
AcDbEntity
8
PRINCIPAL
6
CONTINUOUS
62
7
370
-3
100
AcDbLine
10
-13.9
20
-24.5001
11
-13.9
21
-28.184039444
0
ARC
5
B6
100
AcDbEntity
8
PRINCIPAL
6
CONTINUOUS
62
7
370
-3
100
AcDbCircle
10
-25.00000125
20
-56.500052
40
5
100
AcDbArc
50
180.000014
51
270.000007
0
ARC
5
B7
100
AcDbEntity
8
PRINCIPAL
6
CONTINUOUS
62
7
370
-3
100
AcDbCircle
10
29.69995575
20
-56.5000076282
40
4.999993
100
AcDbArc
50
269.999973
51
359.999986
0
LINE
5
B8
100
AcDbEntity
8
PRINCIPAL
6
CONTINUOUS
62
7
370
-3
100
AcDbLine
10
13.39999875
20
-61.5000476282
11
-25.00000125
21
-61.5000476282
0
LINE
5
B9
100
AcDbEntity
8
PRINCIPAL
6
CONTINUOUS
62
7
370
-3
100
AcDbLine
10
13.39999875
20
-61.5000476282
11
13.89999875
21
-61.0000476282
0
LINE
5
BA
100
AcDbEntity
8
PRINCIPAL
6
CONTINUOUS
62
7
370
-3
100
AcDbLine
10
29.69994875
20
-61.5000476282
11
17.59999875
21
-61.5000476282
0
LINE
5
BB
100
AcDbEntity
8
PRINCIPAL
6
CONTINUOUS
62
7
370
-3
100
AcDbLine
10
17.09999875
20
-61.0000476282
11
17.59999875
21
-61.5000476282
0
LINE
5
BC
100
AcDbEntity
8
PRINCIPAL
6
CONTINUOUS
62
7
370
-3
100
AcDbLine
10
13.89999875
20
-55.500052
11
13.89999875
21
-61.0000476282
0
LINE
5
BD
100
AcDbEntity
8
PRINCIPAL
6
CONTINUOUS
62
7
370
-3
100
AcDbLine
10
17.09999875
20
-55.500052
11
17.09999875
21
-61.0000476282
0
LINE
5
BE
100
AcDbEntity
8
PRINCIPAL
6
CONTINUOUS
62
7
370
-3
100
AcDbLine
10
34.69994875
20
-3.0000076282
11
34.69994875
21
-56.5000076282
0
CIRCLE
5
BF
100
AcDbEntity
8
PRINCIPAL
6
CONTINUOUS
62
7
370
-3
100
AcDbCircle
10
20
20
-40
40
4.9
0
LINE
5
C0
100
AcDbEntity
8
PRINCIPAL
6
CONTINUOUS
62
7
370
-3
100
AcDbLine
10
-30
20
-56.5
11
-30
21
-3.00005
0
ENDSEC
0
SECTION
2
OBJECTS
0
DICTIONARY
5
C
330
0
100
AcDbDictionary
281
1
3
ACAD_GROUP
350
D
0
DICTIONARY
5
D
330
C
100
AcDbDictionary
281
1
0
ENDSEC
0
EOF
